<?xml version="1.0" encoding="UTF-8" standalone="no"?>
<!-- Created with Inkscape (http://www.inkscape.org/) -->

<svg
   xmlns:dc="http://purl.org/dc/elements/1.1/"
   xmlns:cc="http://creativecommons.org/ns#"
   xmlns:rdf="http://www.w3.org/1999/02/22-rdf-syntax-ns#"
   xmlns:svg="http://www.w3.org/2000/svg"
   xmlns="http://www.w3.org/2000/svg"
   xmlns:xlink="http://www.w3.org/1999/xlink"
   xmlns:sodipodi="http://sodipodi.sourceforge.net/DTD/sodipodi-0.dtd"
   xmlns:inkscape="http://www.inkscape.org/namespaces/inkscape"
   width="210mm"
   height="297mm"
   id="svg2"
   version="1.1"
   inkscape:version="0.91 r13725"
   sodipodi:docname="lug.svg"
   inkscape:export-filename="/home/jack/Dropbox/lug.png"
   inkscape:export-xdpi="300"
   inkscape:export-ydpi="300">
  <defs
     id="defs4">
    <linearGradient
       inkscape:collect="always"
       id="linearGradient3936">
      <stop
         style="stop-color:#ffcc00;stop-opacity:1;"
         offset="0"
         id="stop3938" />
      <stop
         style="stop-color:#ffcc00;stop-opacity:0;"
         offset="1"
         id="stop3940" />
    </linearGradient>
    <linearGradient
       inkscape:collect="always"
       id="linearGradient3915">
      <stop
         style="stop-color:#ffd42a;stop-opacity:1;"
         offset="0"
         id="stop3919" />
      <stop
         style="stop-color:#ffd42a;stop-opacity:0"
         offset="1"
         id="stop3921" />
    </linearGradient>
    <linearGradient
       inkscape:collect="always"
       id="linearGradient3904">
      <stop
         style="stop-color:#fff6d5;stop-opacity:1;"
         offset="0"
         id="stop3906" />
      <stop
         style="stop-color:#fff6d5;stop-opacity:0;"
         offset="1"
         id="stop3908" />
    </linearGradient>
    <linearGradient
       inkscape:collect="always"
       id="linearGradient3894">
      <stop
         style="stop-color:#fff6d5;stop-opacity:1;"
         offset="0"
         id="stop3896" />
      <stop
         style="stop-color:#fff6d5;stop-opacity:0;"
         offset="1"
         id="stop3898" />
    </linearGradient>
    <linearGradient
       inkscape:collect="always"
       id="linearGradient3102">
      <stop
         style="stop-color:#ffffff;stop-opacity:1;"
         offset="0"
         id="stop3104" />
      <stop
         style="stop-color:#ffffff;stop-opacity:0;"
         offset="1"
         id="stop3106" />
    </linearGradient>
    <linearGradient
       inkscape:collect="always"
       id="linearGradient3084">
      <stop
         style="stop-color:#000000;stop-opacity:1;"
         offset="0"
         id="stop3086" />
      <stop
         style="stop-color:#000000;stop-opacity:0;"
         offset="1"
         id="stop3088" />
    </linearGradient>
    <linearGradient
       id="linearGradient4592"
       inkscape:collect="always">
      <stop
         id="stop4594"
         offset="0"
         style="stop-color:#000000;stop-opacity:1" />
      <stop
         id="stop4596"
         offset="1"
         style="stop-color:#ffffff;stop-opacity:0" />
    </linearGradient>
    <linearGradient
       inkscape:collect="always"
       id="linearGradient3923">
      <stop
         style="stop-color:#ffffff;stop-opacity:1;"
         offset="0"
         id="stop3925" />
      <stop
         style="stop-color:#ffffff;stop-opacity:0;"
         offset="1"
         id="stop3927" />
    </linearGradient>
    <linearGradient
       inkscape:collect="always"
       id="linearGradient3913">
      <stop
         style="stop-color:#000000;stop-opacity:1;"
         offset="0"
         id="stop3915" />
      <stop
         style="stop-color:#000000;stop-opacity:0;"
         offset="1"
         id="stop3917" />
    </linearGradient>
    <linearGradient
       inkscape:collect="always"
       id="linearGradient3903">
      <stop
         style="stop-color:#000000;stop-opacity:1;"
         offset="0"
         id="stop3905" />
      <stop
         style="stop-color:#000000;stop-opacity:0;"
         offset="1"
         id="stop3907" />
    </linearGradient>
    <linearGradient
       inkscape:collect="always"
       id="linearGradient3868">
      <stop
         style="stop-color:#ffffff;stop-opacity:1;"
         offset="0"
         id="stop3870" />
      <stop
         style="stop-color:#ffffff;stop-opacity:0;"
         offset="1"
         id="stop3872" />
    </linearGradient>
    <linearGradient
       inkscape:collect="always"
       id="linearGradient3717">
      <stop
         style="stop-color:#fff6d5;stop-opacity:1;"
         offset="0"
         id="stop3719" />
      <stop
         style="stop-color:#fff6d5;stop-opacity:0;"
         offset="1"
         id="stop3721" />
    </linearGradient>
    <linearGradient
       inkscape:collect="always"
       id="linearGradient3706">
      <stop
         style="stop-color:#d4aa00;stop-opacity:1;"
         offset="0"
         id="stop3708" />
      <stop
         style="stop-color:#d4aa00;stop-opacity:0;"
         offset="1"
         id="stop3710" />
    </linearGradient>
    <linearGradient
       inkscape:collect="always"
       id="linearGradient3692">
      <stop
         style="stop-color:#fff6d5;stop-opacity:1;"
         offset="0"
         id="stop3694" />
      <stop
         style="stop-color:#fff6d5;stop-opacity:0;"
         offset="1"
         id="stop3696" />
    </linearGradient>
    <linearGradient
       inkscape:collect="always"
       id="linearGradient3681">
      <stop
         style="stop-color:#000000;stop-opacity:1;"
         offset="0"
         id="stop3683" />
      <stop
         style="stop-color:#d4aa00;stop-opacity:0.24714829"
         offset="1"
         id="stop3685" />
    </linearGradient>
    <linearGradient
       inkscape:collect="always"
       id="linearGradient3984">
      <stop
         style="stop-color:#ffffff;stop-opacity:1;"
         offset="0"
         id="stop3986" />
      <stop
         style="stop-color:#ffffff;stop-opacity:0;"
         offset="1"
         id="stop3988" />
    </linearGradient>
    <linearGradient
       inkscape:collect="always"
       id="linearGradient3874">
      <stop
         style="stop-color:#ececec;stop-opacity:1;"
         offset="0"
         id="stop3876" />
      <stop
         style="stop-color:#ececec;stop-opacity:0;"
         offset="1"
         id="stop3878" />
    </linearGradient>
    <linearGradient
       inkscape:collect="always"
       id="linearGradient3837">
      <stop
         style="stop-color:#ffcc00;stop-opacity:1;"
         offset="0"
         id="stop3839" />
      <stop
         style="stop-color:#aa8800;stop-opacity:0.38403042"
         offset="1"
         id="stop3841" />
    </linearGradient>
    <linearGradient
       inkscape:collect="always"
       id="linearGradient3801">
      <stop
         style="stop-color:#ffffff;stop-opacity:1;"
         offset="0"
         id="stop3803" />
      <stop
         style="stop-color:#ffffff;stop-opacity:0;"
         offset="1"
         id="stop3805" />
    </linearGradient>
    <linearGradient
       inkscape:collect="always"
       id="linearGradient3710">
      <stop
         style="stop-color:#ffffff;stop-opacity:1;"
         offset="0"
         id="stop3712" />
      <stop
         style="stop-color:#ffffff;stop-opacity:0;"
         offset="1"
         id="stop3714" />
    </linearGradient>
    <linearGradient
       inkscape:collect="always"
       id="linearGradient3691">
      <stop
         style="stop-color:#f2f2f2;stop-opacity:1;"
         offset="0"
         id="stop3693" />
      <stop
         style="stop-color:#f2f2f2;stop-opacity:0;"
         offset="1"
         id="stop3695" />
    </linearGradient>
    <linearGradient
       inkscape:collect="always"
       id="linearGradient3656">
      <stop
         style="stop-color:#999999;stop-opacity:1;"
         offset="0"
         id="stop3658" />
      <stop
         style="stop-color:#999999;stop-opacity:0.20912548"
         offset="1"
         id="stop3660" />
    </linearGradient>
    <inkscape:perspective
       sodipodi:type="inkscape:persp3d"
       inkscape:vp_x="80.626215 : 94.447313 : 1"
       inkscape:vp_y="-958.52057 : 240.15913 : 0"
       inkscape:vp_z="337.68623 : 226.30462 : 1"
       inkscape:persp3d-origin="309.72132 : 63.575455 : 1"
       id="perspective10" />
    <inkscape:perspective
       id="perspective2824"
       inkscape:persp3d-origin="0.5 : 0.33333333 : 1"
       inkscape:vp_z="1 : 0.5 : 1"
       inkscape:vp_y="0 : 1000 : 0"
       inkscape:vp_x="0 : 0.5 : 1"
       sodipodi:type="inkscape:persp3d" />
    <radialGradient
       inkscape:collect="always"
       xlink:href="#linearGradient3656"
       id="radialGradient3662"
       cx="285.75729"
       cy="360.70251"
       fx="285.75729"
       fy="360.70251"
       r="14.328956"
       gradientTransform="matrix(1.6473127,-3.7435347e-7,4.8420261e-7,2.1306955,-188.15923,-410.12209)"
       gradientUnits="userSpaceOnUse" />
    <linearGradient
       inkscape:collect="always"
       xlink:href="#linearGradient3691"
       id="linearGradient3697"
       x1="276.45895"
       y1="342.3653"
       x2="269.54868"
       y2="365.76004"
       gradientUnits="userSpaceOnUse" />
    <radialGradient
       inkscape:collect="always"
       xlink:href="#linearGradient3656"
       id="radialGradient3701"
       gradientUnits="userSpaceOnUse"
       gradientTransform="matrix(-1.9341031,-4.0604708e-7,-5.6850029e-7,2.311085,872.4058,-475.93351)"
       cx="285.75729"
       cy="360.70251"
       fx="285.75729"
       fy="360.70251"
       r="14.328956" />
    <linearGradient
       inkscape:collect="always"
       xlink:href="#linearGradient3691"
       id="linearGradient3705"
       gradientUnits="userSpaceOnUse"
       x1="276.45895"
       y1="342.3653"
       x2="269.54868"
       y2="365.76004"
       gradientTransform="matrix(1.0385485,0,-0.12662513,1,69.53198,-2.9319062)" />
    <linearGradient
       inkscape:collect="always"
       xlink:href="#linearGradient3710"
       id="linearGradient3716"
       x1="290.58942"
       y1="344.37439"
       x2="296.71451"
       y2="367.69754"
       gradientUnits="userSpaceOnUse" />
    <linearGradient
       inkscape:collect="always"
       xlink:href="#linearGradient3710"
       id="linearGradient3720"
       gradientUnits="userSpaceOnUse"
       x1="292.81445"
       y1="342.54196"
       x2="302.61877"
       y2="372.0954"
       gradientTransform="matrix(0.7509081,0,-0.09816136,1,144.59653,-1.7102786)" />
    <linearGradient
       inkscape:collect="always"
       xlink:href="#linearGradient3691"
       id="linearGradient3750"
       gradientUnits="userSpaceOnUse"
       x1="276.45895"
       y1="342.3653"
       x2="269.54868"
       y2="365.76004"
       gradientTransform="matrix(0.46521743,0,0,0.44061442,153.98095,208.58271)" />
    <linearGradient
       inkscape:collect="always"
       xlink:href="#linearGradient3691"
       id="linearGradient3754"
       gradientUnits="userSpaceOnUse"
       gradientTransform="matrix(0.49082802,0,0,0.490906,178.08883,189.977)"
       x1="276.45895"
       y1="342.3653"
       x2="269.54868"
       y2="365.76004" />
    <linearGradient
       inkscape:collect="always"
       xlink:href="#linearGradient3691"
       id="linearGradient3758"
       gradientUnits="userSpaceOnUse"
       gradientTransform="matrix(-0.18659104,-0.38189186,0.23114085,-0.30838444,287.75827,585.34143)"
       x1="283.09637"
       y1="336.31323"
       x2="267.44745"
       y2="370.05118" />
    <linearGradient
       inkscape:collect="always"
       xlink:href="#linearGradient3691"
       id="linearGradient3768"
       gradientUnits="userSpaceOnUse"
       gradientTransform="matrix(-0.18659104,-0.38189186,0.23114085,-0.30838444,256.94181,586.28672)"
       x1="283.09637"
       y1="336.31323"
       x2="267.44745"
       y2="370.05118" />
    <linearGradient
       inkscape:collect="always"
       xlink:href="#linearGradient3801"
       id="linearGradient3807"
       x1="316.48315"
       y1="309.36411"
       x2="345.36887"
       y2="326.47501"
       gradientUnits="userSpaceOnUse"
       gradientTransform="matrix(2.2138565,0,0,2.2138565,-273.04205,-590.70317)" />
    <linearGradient
       inkscape:collect="always"
       xlink:href="#linearGradient3837"
       id="linearGradient3843"
       x1="326.18964"
       y1="398.55746"
       x2="267.05051"
       y2="379.95142"
       gradientUnits="userSpaceOnUse"
       gradientTransform="matrix(2.2138565,0,0,2.2138565,-273.04205,-590.70319)" />
    <linearGradient
       inkscape:collect="always"
       xlink:href="#linearGradient3691"
       id="linearGradient3845"
       x1="305.76379"
       y1="378.29755"
       x2="300.41641"
       y2="407.57239"
       gradientUnits="userSpaceOnUse"
       gradientTransform="matrix(2.2138565,0,0,2.2138565,-278.06461,-601.58541)" />
    <linearGradient
       inkscape:collect="always"
       xlink:href="#linearGradient3691"
       id="linearGradient3855"
       x1="310.14752"
       y1="408.60776"
       x2="302.92859"
       y2="390.00168"
       gradientUnits="userSpaceOnUse"
       gradientTransform="matrix(2.2138565,0,0,2.2138565,-273.04205,-590.70319)" />
    <linearGradient
       inkscape:collect="always"
       xlink:href="#linearGradient3874"
       id="linearGradient3880"
       x1="427.48483"
       y1="446.85934"
       x2="335.61511"
       y2="486.07584"
       gradientUnits="userSpaceOnUse"
       gradientTransform="matrix(2.2138565,0,0,2.2138565,-273.04205,-590.70317)" />
    <linearGradient
       inkscape:collect="always"
       xlink:href="#linearGradient3984"
       id="linearGradient3990"
       x1="307.42117"
       y1="428.47064"
       x2="307.42117"
       y2="561.66199"
       gradientUnits="userSpaceOnUse"
       gradientTransform="matrix(2.2138565,0,0,2.2138565,-273.04205,-590.70317)" />
    <linearGradient
       inkscape:collect="always"
       xlink:href="#linearGradient3691"
       id="linearGradient3669"
       x1="307.47369"
       y1="397.84424"
       x2="308.81668"
       y2="610.32306"
       gradientUnits="userSpaceOnUse"
       gradientTransform="matrix(2.2138565,0,0,2.2138565,-273.04205,-590.70317)" />
    <linearGradient
       inkscape:collect="always"
       xlink:href="#linearGradient3681"
       id="linearGradient3687"
       x1="145.55092"
       y1="486.6106"
       x2="180.20633"
       y2="591.68079"
       gradientUnits="userSpaceOnUse"
       gradientTransform="matrix(2.2138565,0,0,2.2138565,-271.3323,-444.70319)" />
    <linearGradient
       inkscape:collect="always"
       xlink:href="#linearGradient3692"
       id="linearGradient3698"
       x1="248.65265"
       y1="614.41266"
       x2="225.57477"
       y2="597.02625"
       gradientUnits="userSpaceOnUse"
       gradientTransform="matrix(0.95828118,0,0,0.95752284,12.090321,53.805051)" />
    <linearGradient
       inkscape:collect="always"
       xlink:href="#linearGradient3692"
       id="linearGradient3702"
       gradientUnits="userSpaceOnUse"
       gradientTransform="matrix(0.95828118,0,0,0.95752284,3.650119,21.091284)"
       x1="248.65265"
       y1="614.41266"
       x2="228.70723"
       y2="604.80908" />
    <linearGradient
       inkscape:collect="always"
       xlink:href="#linearGradient3706"
       id="linearGradient3712"
       x1="348.11371"
       y1="551.84845"
       x2="322.1293"
       y2="602.11371"
       gradientUnits="userSpaceOnUse"
       gradientTransform="matrix(2.2138565,0,0,2.2138565,-271.3323,-444.70319)" />
    <linearGradient
       inkscape:collect="always"
       xlink:href="#linearGradient3717"
       id="linearGradient3723"
       x1="332.82404"
       y1="633.10059"
       x2="333.06744"
       y2="611.16229"
       gradientUnits="userSpaceOnUse"
       gradientTransform="matrix(0.95826984,0,0,0.99004208,10.667457,40.572423)" />
    <inkscape:perspective
       id="perspective4045"
       inkscape:persp3d-origin="0.5 : 0.33333333 : 1"
       inkscape:vp_z="1 : 0.5 : 1"
       inkscape:vp_y="0 : 1000 : 0"
       inkscape:vp_x="0 : 0.5 : 1"
       sodipodi:type="inkscape:persp3d" />
    <linearGradient
       gradientTransform="translate(-455.3118,-189.8477)"
       inkscape:collect="always"
       xlink:href="#linearGradient3954"
       id="linearGradient3960"
       x1="92.68924"
       y1="451.61356"
       x2="175.12123"
       y2="530.49799"
       gradientUnits="userSpaceOnUse" />
    <linearGradient
       inkscape:collect="always"
       id="linearGradient3954">
      <stop
         style="stop-color:#ffffff;stop-opacity:1;"
         offset="0"
         id="stop3956" />
      <stop
         style="stop-color:#ffffff;stop-opacity:0;"
         offset="1"
         id="stop3958" />
    </linearGradient>
    <linearGradient
       gradientTransform="translate(-455.3118,-189.8477)"
       inkscape:collect="always"
       xlink:href="#linearGradient3962"
       id="linearGradient3968"
       x1="698.1275"
       y1="453.58566"
       x2="617.14984"
       y2="564.78162"
       gradientUnits="userSpaceOnUse" />
    <linearGradient
       inkscape:collect="always"
       id="linearGradient3962">
      <stop
         style="stop-color:#ffffff;stop-opacity:1;"
         offset="0"
         id="stop3964" />
      <stop
         style="stop-color:#ffffff;stop-opacity:0;"
         offset="1"
         id="stop3966" />
    </linearGradient>
    <linearGradient
       gradientTransform="matrix(1.1264368,0,0,1.2090032,-520.89219,-336.90119)"
       inkscape:collect="always"
       xlink:href="#linearGradient3986"
       id="linearGradient3992"
       x1="409.3288"
       y1="622.7486"
       x2="409.18735"
       y2="876.94757"
       gradientUnits="userSpaceOnUse" />
    <linearGradient
       id="linearGradient3986">
      <stop
         style="stop-color:#ffffff;stop-opacity:1;"
         offset="0"
         id="stop3988-1" />
      <stop
         style="stop-color:#ffffff;stop-opacity:0;"
         offset="1"
         id="stop3990" />
    </linearGradient>
    <radialGradient
       inkscape:collect="always"
       xlink:href="#linearGradient3914"
       id="radialGradient3920"
       cx="427.81097"
       cy="359.40796"
       fx="427.81097"
       fy="359.40796"
       r="130.36153"
       gradientTransform="matrix(1.9293013,-0.01735872,0.00874271,1.7787938,-400.70748,-271.48764)"
       gradientUnits="userSpaceOnUse" />
    <linearGradient
       inkscape:collect="always"
       id="linearGradient3914">
      <stop
         style="stop-color:#ffffff;stop-opacity:1;"
         offset="0"
         id="stop3916" />
      <stop
         style="stop-color:#999999;stop-opacity:1"
         offset="1"
         id="stop3918" />
    </linearGradient>
    <linearGradient
       inkscape:collect="always"
       xlink:href="#linearGradient3730"
       id="linearGradient4062"
       gradientUnits="userSpaceOnUse"
       x1="481.66818"
       y1="16.74575"
       x2="487.64783"
       y2="270.93243"
       gradientTransform="matrix(0.78989361,0,0,0.85416667,-433.11506,-166.83973)" />
    <linearGradient
       inkscape:collect="always"
       id="linearGradient3730">
      <stop
         style="stop-color:#ffffff;stop-opacity:1;"
         offset="0"
         id="stop3732" />
      <stop
         style="stop-color:#ffffff;stop-opacity:0"
         offset="1"
         id="stop3734" />
    </linearGradient>
    <linearGradient
       inkscape:collect="always"
       xlink:href="#linearGradient3621"
       id="linearGradient3650"
       gradientUnits="userSpaceOnUse"
       x1="573.95953"
       y1="726.68945"
       x2="573.95953"
       y2="829.02856" />
    <linearGradient
       inkscape:collect="always"
       id="linearGradient3621">
      <stop
         style="stop-color:#ffffff;stop-opacity:1;"
         offset="0"
         id="stop3623" />
      <stop
         style="stop-color:#ffffff;stop-opacity:0"
         offset="1"
         id="stop3625" />
    </linearGradient>
    <linearGradient
       inkscape:collect="always"
       xlink:href="#linearGradient3621"
       id="linearGradient3654"
       gradientUnits="userSpaceOnUse"
       x1="573.95953"
       y1="726.68945"
       x2="573.95953"
       y2="798.05444" />
    <linearGradient
       inkscape:collect="always"
       xlink:href="#linearGradient3946"
       id="linearGradient3952"
       x1="581.48999"
       y1="358.13583"
       x2="422.51447"
       y2="358.13583"
       gradientUnits="userSpaceOnUse" />
    <linearGradient
       inkscape:collect="always"
       id="linearGradient3946">
      <stop
         style="stop-color:#b3b3b3;stop-opacity:1"
         offset="0"
         id="stop3948" />
      <stop
         style="stop-color:#b3b3b3;stop-opacity:0;"
         offset="1"
         id="stop3950" />
    </linearGradient>
    <linearGradient
       gradientTransform="translate(-455.3118,-189.8477)"
       inkscape:collect="always"
       xlink:href="#linearGradient4196"
       id="linearGradient4202"
       x1="500.66794"
       y1="218.21565"
       x2="504.84515"
       y2="271.11642"
       gradientUnits="userSpaceOnUse" />
    <linearGradient
       inkscape:collect="always"
       id="linearGradient4196">
      <stop
         style="stop-color:#ffffff;stop-opacity:1;"
         offset="0"
         id="stop4198" />
      <stop
         style="stop-color:#ffffff;stop-opacity:0;"
         offset="1"
         id="stop4200" />
    </linearGradient>
    <inkscape:path-effect
       effect="skeletal"
       id="path-effect5372"
       is_visible="true"
       pattern="m -419.87993,-179.72431 0,10 10,-5 z"
       copytype="single_stretched"
       prop_scale="1"
       scale_y_rel="false"
       spacing="0"
       normal_offset="0"
       tang_offset="0"
       prop_units="false"
       vertical_pattern="false"
       fuse_tolerance="0" />
    <linearGradient
       gradientTransform="translate(-455.3118,-189.8477)"
       inkscape:collect="always"
       xlink:href="#linearGradient3976"
       id="linearGradient3982"
       x1="310.33777"
       y1="309.07156"
       x2="426.96216"
       y2="451.2886"
       gradientUnits="userSpaceOnUse" />
    <linearGradient
       id="linearGradient3976">
      <stop
         style="stop-color:#a68500;stop-opacity:1;"
         offset="0"
         id="stop3978" />
      <stop
         style="stop-color:#ffcc00;stop-opacity:0;"
         offset="1"
         id="stop3980" />
    </linearGradient>
    <linearGradient
       inkscape:collect="always"
       xlink:href="#linearGradient3868"
       id="linearGradient3875"
       x1="185.41214"
       y1="511.75815"
       x2="202.43143"
       y2="593.11743"
       gradientUnits="userSpaceOnUse"
       gradientTransform="matrix(2.2138565,0,0,2.2138565,-231.61773,-333.68728)" />
    <linearGradient
       inkscape:collect="always"
       xlink:href="#linearGradient3903"
       id="linearGradient3909"
       x1="215.39883"
       y1="635.71478"
       x2="213.82658"
       y2="586.45087"
       gradientUnits="userSpaceOnUse"
       gradientTransform="matrix(2.2138565,0,0,2.2138565,-271.3323,-444.70317)" />
    <linearGradient
       inkscape:collect="always"
       xlink:href="#linearGradient3913"
       id="linearGradient3919"
       x1="324.93256"
       y1="643.052"
       x2="322.1293"
       y2="579.40094"
       gradientUnits="userSpaceOnUse"
       gradientTransform="matrix(2.2138565,0,0,2.184137,-271.3323,-428.86796)" />
    <linearGradient
       inkscape:collect="always"
       xlink:href="#linearGradient3923"
       id="linearGradient3929"
       x1="317.59537"
       y1="535.09052"
       x2="322.1293"
       y2="590.11945"
       gradientUnits="userSpaceOnUse"
       gradientTransform="matrix(2.2138565,0,0,2.1764163,-271.3323,-421.05419)" />
    <radialGradient
       inkscape:collect="always"
       xlink:href="#linearGradient4592"
       id="radialGradient4590"
       cx="697.867"
       cy="713.04999"
       fx="697.867"
       fy="713.04999"
       r="168.0446"
       gradientTransform="matrix(1.015241,0.780496,-0.34209821,0.76936294,116.43646,-243.53779)"
       gradientUnits="userSpaceOnUse" />
    <linearGradient
       inkscape:collect="always"
       xlink:href="#linearGradient3084"
       id="linearGradient3090"
       x1="163.4193"
       y1="925.34766"
       x2="157.02174"
       y2="514.8999"
       gradientUnits="userSpaceOnUse"
       gradientTransform="translate(-23.04912,-154.92808)" />
    <linearGradient
       inkscape:collect="always"
       xlink:href="#linearGradient3102"
       id="linearGradient3108"
       x1="107.69739"
       y1="497.92648"
       x2="101.2411"
       y2="627.54156"
       gradientUnits="userSpaceOnUse"
       gradientTransform="translate(36.949976,-153.38504)" />
    <linearGradient
       inkscape:collect="always"
       xlink:href="#linearGradient3894"
       id="linearGradient3900"
       x1="433.20737"
       y1="719.06842"
       x2="438.42673"
       y2="935.29926"
       gradientUnits="userSpaceOnUse"
       gradientTransform="translate(-1.709754,-146)" />
    <linearGradient
       inkscape:collect="always"
       xlink:href="#linearGradient3904"
       id="linearGradient3910"
       x1="181.21234"
       y1="736.68036"
       x2="189.09644"
       y2="944.62024"
       gradientUnits="userSpaceOnUse"
       gradientTransform="translate(-1.709754,-146)" />
    <linearGradient
       inkscape:collect="always"
       xlink:href="#linearGradient3915"
       id="linearGradient3924"
       x1="435.44421"
       y1="713.849"
       x2="441.40927"
       y2="892.19916"
       gradientUnits="userSpaceOnUse"
       gradientTransform="translate(-1.709754,-146)" />
    <linearGradient
       inkscape:collect="always"
       xlink:href="#linearGradient3936"
       id="linearGradient3942"
       x1="220.99692"
       y1="889.76825"
       x2="113.9759"
       y2="701.88635"
       gradientUnits="userSpaceOnUse"
       gradientTransform="translate(-1.709754,-146)" />
    <clipPath
       id="clipPath3649"
       clipPathUnits="userSpaceOnUse">
      <path
         inkscape:connector-curvature="0"
         id="path3651"
         d="M 0,0 0,669 1834,669 1834,0 0,0 Z" />
    </clipPath>
    <clipPath
       id="clipPath3655"
       clipPathUnits="userSpaceOnUse">
      <path
         inkscape:connector-curvature="0"
         id="path3657"
         d="m 926.191,-0.0195313 -0.179,0 C 584.73,0.0703125 267.57,102.852 3.42188,278.98 2.73828,290.129 2.16016,301.309 1.68359,312.52 1.9375,306.879 2.21875,301.25 2.51953,295.629 l 0,0 0,0 c -0.30469,5.672 -0.58594,11.351 -0.84375,17.031 -0.968749,22.86 -1.496092,45.828 -1.496092,68.918 0,69.711 4.351562,138.41 12.691412,205.871 0.1797,1.43 0.3555,2.852 0.5391,4.281 -0.1836,-1.429 -0.3594,-2.851 -0.5391,-4.281 0.4141,3.371 0.8398,6.731 1.2734,10.09 -0.2461,-1.937 -0.4882,-3.867 -0.7343,-5.809 0.2461,1.942 0.4882,3.872 0.7343,5.809 0.0078,0.031 0.0118,0.063 0.0157,0.102 0.0117,0.097 0.0234,0.199 0.039,0.308 2.0039,15.43 4.2227,30.789 6.6406,46.09 0.2422,1.512 0.4844,3.012 0.7227,4.52 1.0469,6.519 2.1289,13.031 3.2539,19.519 C 104.871,595.82 193.543,533.02 289.129,481.531 c 0.312,-0.172 0.617,-0.332 0.934,-0.5 1.89,-1.019 3.777,-2.031 5.671,-3.043 2.481,-1.316 4.957,-2.629 7.442,-3.929 0.547,-0.289 1.094,-0.571 1.64,-0.848 185.692,-97.012 396.743,-151.781 621.196,-151.84 209.838,0 408.088,47.91 584.778,133.438 1.29,-24.27 1.94,-48.731 1.93,-73.321 0,-98.187 -10.62,-193.859 -30.6,-286.0192 l 0,0 0,0 c 99.73,35.3322 195.22,79.7502 285.27,132.4292 C 1520.43,83.1211 1232.83,-0.0195313 926.191,-0.0195313 M 1772.98,231.199 c 0.55,0.332 1.1,0.653 1.65,0.981 -0.55,-0.328 -1.1,-0.649 -1.65,-0.981 M 14.1602,597.641 c 0.0117,0.097 0.0273,0.211 0.039,0.308 -0.0156,-0.109 -0.0273,-0.211 -0.039,-0.308 m 6.6796,46.398 c 0.2383,1.512 0.4805,3.02 0.7227,4.52 -0.2383,-1.508 -0.4805,-3.008 -0.7227,-4.52" />
    </clipPath>
    <linearGradient
       id="linearGradient3659"
       spreadMethod="pad"
       gradientTransform="matrix(1799.51,-373.888,-373.888,-1799.51,19.9121,589.49)"
       gradientUnits="userSpaceOnUse"
       y2="0"
       x2="1"
       y1="0"
       x1="0">
      <stop
         id="stop3661"
         offset="0"
         style="stop-opacity:1;stop-color:#899cc8" />
      <stop
         id="stop3663"
         offset="1"
         style="stop-opacity:1;stop-color:#122241" />
    </linearGradient>
    <clipPath
       id="clipPath3673"
       clipPathUnits="userSpaceOnUse">
      <path
         inkscape:connector-curvature="0"
         id="path3675"
         d="m 594,95 0,1775 1240,0 0,-1775 -1240,0 z" />
    </clipPath>
    <clipPath
       id="clipPath3679"
       clipPathUnits="userSpaceOnUse">
      <path
         inkscape:connector-curvature="0"
         id="path3681"
         d="m 1482.12,95.4688 c 19.98,92.1602 30.6,187.8322 30.6,286.0192 l 0,0 0,0 0,0 0,0 C 1513,846.801 1276.23,1256.9 916.906,1498.25 c 99.054,66.5 207.384,120.12 322.664,158.63 l 0,0 0,0 0,0 c -64.66,54.38 -133.49,103.92 -205.95,148.08 480,-292.36 800.24,-820.312 800.49,-1423.562 0,-38.609 -1.44,-76.949 -4.05,-114.929 -108,-69.84 -224.73,-127.348 -347.94,-171.0002 M 1033.41,1805.08 c -3.29,2.01 -6.59,4.01 -9.9,5.99 3.3,-1.98 6.62,-3.98 9.9,-5.99 m -10.4,6.29 c -2.71,1.62 -5.42,3.24 -8.14,4.84 2.71,-1.6 5.44,-3.23 8.14,-4.84 m -11.86,7.04 c -2.23,1.31 -4.46,2.61 -6.69,3.91 2.24,-1.3 4.45,-2.6 6.69,-3.91 m -12.134,7.06 c -0.485,0.28 -0.981,0.56 -1.465,0.84 0.48,-0.27 0.984,-0.56 1.465,-0.84" />
    </clipPath>
    <linearGradient
       id="linearGradient3683"
       spreadMethod="pad"
       gradientTransform="matrix(-1195.01,1364.74,1364.74,1195.01,1863.96,316.43)"
       gradientUnits="userSpaceOnUse"
       y2="0"
       x2="1"
       y1="0"
       x1="0">
      <stop
         id="stop3685-1"
         offset="0"
         style="stop-opacity:1;stop-color:#899cc8" />
      <stop
         id="stop3687"
         offset="1"
         style="stop-opacity:1;stop-color:#122241" />
    </linearGradient>
    <clipPath
       id="clipPath3697"
       clipPathUnits="userSpaceOnUse">
      <path
         inkscape:connector-curvature="0"
         id="path3699-0"
         d="m 324,463.391 c -6.426,3.218 -12.816,6.488 -19.184,9.82 l 0,0 c -0.546,0.277 -1.093,0.559 -1.64,0.848 -2.481,1.3 -4.965,2.621 -7.442,3.929 -1.894,1.012 -3.781,2.024 -5.671,3.043 -0.317,0.168 -0.622,0.328 -0.934,0.5 -95.586,51.489 -184.258,114.289 -264.3126,186.547 -0.0234,0.024 -0.043,0.043 -0.0664,0.063 91.441,526.769 429.93,968.669 891.988,1201.769 116.012,-58.5 224.282,-130.14 322.832,-213.03 -115.28,-38.51 -223.61,-92.13 -322.664,-158.63 l 0,0 C 844.445,1449.61 776.957,1394.08 715.32,1332.52 489.691,1106.71 344.25,802.422 324,463.391" />
    </clipPath>
    <linearGradient
       id="linearGradient3701"
       spreadMethod="pad"
       gradientTransform="matrix(-510.235,-1491.2,-1491.2,510.235,868.921,1886.27)"
       gradientUnits="userSpaceOnUse"
       y2="0"
       x2="1"
       y1="0"
       x1="0">
      <stop
         id="stop3703"
         offset="0"
         style="stop-opacity:1;stop-color:#899cc8" />
      <stop
         id="stop3705"
         offset="1"
         style="stop-opacity:1;stop-color:#122241" />
    </linearGradient>
  </defs>
  <sodipodi:namedview
     id="base"
     pagecolor="#ffffff"
     bordercolor="#666666"
     borderopacity="1.0"
     inkscape:pageopacity="0.0"
     inkscape:pageshadow="2"
     inkscape:zoom="0.9483427"
     inkscape:cx="20.892393"
     inkscape:cy="443.66455"
     inkscape:document-units="px"
     inkscape:current-layer="layer1"
     showgrid="false"
     inkscape:window-width="2560"
     inkscape:window-height="1639"
     inkscape:window-x="0"
     inkscape:window-y="28"
     inkscape:window-maximized="0"
     showguides="true"
     inkscape:guide-bbox="true"
     inkscape:object-paths="true"
     inkscape:snap-global="false">
    <inkscape:grid
       type="xygrid"
       id="grid4563" />
  </sodipodi:namedview>
  <metadata
     id="metadata7">
    <rdf:RDF>
      <cc:Work
         rdf:about="">
        <dc:format>image/svg+xml</dc:format>
        <dc:type
           rdf:resource="http://purl.org/dc/dcmitype/StillImage" />
        <dc:title />
      </cc:Work>
    </rdf:RDF>
  </metadata>
  <g
     inkscape:label="Capa 1"
     inkscape:groupmode="layer"
     id="layer1">
    <path
       style="fill:#000000;fill-opacity:1;fill-rule:evenodd;stroke:#000000;stroke-width:2.21385646px;stroke-linecap:butt;stroke-linejoin:miter;stroke-opacity:1"
       d="m 335.93539,768.14145 c -73.90182,0 -161.93444,-140.52915 -164.42766,-288.15081 -1.33708,-79.16774 137.76192,-160.06851 137.76192,-228.6635 2.23632,-84.68536 -39.90574,-192.54604 98.22839,-194.78237 149.31602,0 116.08901,118.97446 131.05519,204.37265 12.56635,68.7388 183.42424,179.19247 151.43481,292.26985 -40.07225,20.0605 -35.92088,15.13331 -43.31461,65.47451 -10.19169,76.28642 -93.3477,151.24987 -310.73804,149.47967 z"
       id="path2830"
       sodipodi:nodetypes="cscccccc"
       inkscape:connector-curvature="0" />
    <path
       style="fill:#ffffff;fill-opacity:1;fill-rule:evenodd;stroke:none"
       d="m 383.90286,235.32804 c -20.45409,8.28584 -27.7908,11.39933 -45.53476,16.27524 -22.36333,-14.11504 -29.59324,-95.34061 15.20197,-97.01787 41.36114,2.23635 30.33279,80.74263 30.33279,80.74263 z"
       id="path3605"
       sodipodi:nodetypes="cccc"
       inkscape:connector-curvature="0" />
    <path
       sodipodi:nodetypes="cccc"
       id="path3620"
       d="m 397.84365,234.78374 c 23.86563,9.00959 33.80732,13.68227 54.51077,18.98408 26.09331,-15.34796 33.49313,-102.38123 -18.77344,-104.20498 -48.25974,2.43171 -35.73733,85.2209 -35.73733,85.2209 z"
       style="fill:#ffffff;fill-opacity:1;fill-rule:evenodd;stroke:none"
       inkscape:connector-curvature="0" />
    <path
       style="fill:url(#linearGradient3669);fill-opacity:1;fill-rule:evenodd;stroke:none"
       d="m 562.57772,550.7307 c 2.62272,143.79609 -44.53263,213.28972 -183.4027,209.59373 -85.01763,-4.68716 -118.19308,-43.32984 -120.56074,-231.02635 -1.75524,-139.14841 81.04276,-253.20252 158.86514,-253.20252 77.49786,0 144.86963,135.76706 145.0983,274.63514 z"
       id="path3613"
       sodipodi:nodetypes="ccssc"
       inkscape:connector-curvature="0" />
    <g
       id="g3822"
       transform="matrix(2.2138565,0,0,2.2138565,-273.04205,-590.70317)">
      <path
         style="opacity:0.8365019;fill:url(#radialGradient3662);fill-opacity:1;fill-rule:evenodd;stroke:none"
         d="m 296.60865,373.1187 c -9.23913,3.74272 -12.41944,5.55014 -20.43439,7.75259 -10.10153,-6.37577 -13.50097,-43.33278 6.73305,-44.09039 18.68285,1.01016 13.70134,36.3378 13.70134,36.3378 z"
         id="path3622"
         sodipodi:nodetypes="cccc"
         inkscape:connector-curvature="0" />
      <path
         sodipodi:nodetypes="cccc"
         id="path3672"
         d="m 275.90786,358.27368 c -3.73013,2.20513 -1.69393,1.16969 -5.98303,4.81263 -2.27264,-17.39257 6.35535,-24.04678 9.74256,-24.04678 -5.83699,11.09579 -3.75953,19.23415 -3.75953,19.23415 z"
         style="fill:url(#linearGradient3697);fill-opacity:1;fill-rule:evenodd;stroke:none"
         inkscape:connector-curvature="0" />
      <path
         sodipodi:nodetypes="cccc"
         id="rect3707"
         d="m 286.44053,339.23021 c 7.57203,-0.58491 11.80556,16.75089 9.76118,31.83896 -1.35332,0.14397 -1.44585,0.083 -2.71467,0.51829 2.19713,-7.38689 -0.27133,-24.21769 -7.04651,-32.35725 z"
         style="fill:url(#linearGradient3716);fill-opacity:1;fill-rule:evenodd;stroke:none"
         inkscape:connector-curvature="0" />
    </g>
    <g
       id="g3827"
       transform="matrix(2.2138565,0,0,2.2138565,-273.04205,-590.70317)">
      <path
         sodipodi:nodetypes="cccc"
         id="path3699"
         d="m 302.81748,373.13792 c 10.84761,4.05957 14.96536,6.03134 24.37567,8.42025 12.39491,-6.64819 15.89203,-46.53246 -7.86465,-47.35421 -21.93545,1.09567 -16.51102,38.93396 -16.51102,38.93396 z"
         style="opacity:0.8365019;fill:url(#radialGradient3701);fill-opacity:1;fill-rule:evenodd;stroke:none"
         inkscape:connector-curvature="0" />
      <path
         style="fill:url(#linearGradient3705);fill-opacity:1;fill-rule:evenodd;stroke:none"
         d="m 310.70922,355.34178 c -4.15315,2.20513 -1.90735,1.16969 -6.82307,4.81263 -0.15791,-17.39257 9.64526,-24.04678 13.16304,-24.04678 -7.467,11.09579 -6.33997,19.23415 -6.33997,19.23415 z"
         id="path3703"
         sodipodi:nodetypes="cccc"
         inkscape:connector-curvature="0" />
      <path
         style="fill:url(#linearGradient3720);fill-opacity:1;fill-rule:evenodd;stroke:none"
         d="m 326.38775,337.51993 c 6.28486,1.12537 12.78745,16.50657 7.1363,34.16005 -1.03035,0.14397 -5.00306,4.96951 -5.99856,5.4048 5.67335,-6.40959 5.96055,-30.69231 -1.13774,-39.56485 z"
         id="path3718"
         sodipodi:nodetypes="cccc"
         inkscape:connector-curvature="0" />
    </g>
    <g
       id="g3817"
       transform="matrix(2.2138565,0,0,2.2138565,-273.04205,-590.70317)">
      <path
         transform="translate(30.809653,-1.0101525)"
         sodipodi:type="arc"
         style="fill:#000000;fill-opacity:1;fill-rule:evenodd;stroke:#000000;stroke-width:1px;stroke-linecap:butt;stroke-linejoin:miter;stroke-opacity:1"
         id="path3611"
         sodipodi:cx="285.3681"
         sodipodi:cy="366.72113"
         sodipodi:rx="6.0609155"
         sodipodi:ry="9.3439112"
         d="m 291.42902,366.72113 a 6.0609155,9.3439112 0 0 1 -6.05197,9.3439 6.0609155,9.3439112 0 0 1 -6.06984,-9.31633 6.0609155,9.3439112 0 0 1 6.03407,-9.37139 6.0609155,9.3439112 0 0 1 6.08763,9.28868"
         sodipodi:start="0"
         sodipodi:end="6.2772837"
         sodipodi:open="true" />
      <path
         sodipodi:nodetypes="cccc"
         id="path3752"
         d="m 313.51212,365.85571 c -1.83085,1.0825 -0.83144,0.57421 -2.93664,2.36254 -1.11546,-8.53812 3.11939,-11.8047 4.78192,-11.8047 -2.86496,5.447 -1.84528,9.44216 -1.84528,9.44216 z"
         style="fill:url(#linearGradient3754);fill-opacity:1;fill-rule:evenodd;stroke:none"
         inkscape:connector-curvature="0" />
      <path
         style="fill:url(#linearGradient3758);fill-opacity:1;fill-rule:evenodd;stroke:none"
         d="m 319.55593,369.0874 c 0.53728,1.21237 0.78698,1.08829 2.29562,0.33283 -1.65766,5.49623 -6.40983,7.32807 -9.1808,3.56137 5.39172,1.21363 6.88518,-3.8942 6.88518,-3.8942 z"
         id="path3756"
         sodipodi:nodetypes="cccc"
         inkscape:connector-curvature="0" />
    </g>
    <g
       id="g3812"
       transform="matrix(2.2138565,0,0,2.2138565,-273.04205,-590.70317)">
      <path
         sodipodi:open="true"
         sodipodi:end="6.2772837"
         sodipodi:start="0"
         d="m 291.42902,366.72113 a 6.0609155,9.3439112 0 0 1 -6.05197,9.3439 6.0609155,9.3439112 0 0 1 -6.06984,-9.31633 6.0609155,9.3439112 0 0 1 6.03407,-9.37139 6.0609155,9.3439112 0 0 1 6.08763,9.28868"
         sodipodi:ry="9.3439112"
         sodipodi:rx="6.0609155"
         sodipodi:cy="366.72113"
         sodipodi:cx="285.3681"
         id="path3609"
         style="fill:#000000;fill-opacity:1;fill-rule:evenodd;stroke:#000000;stroke-width:1px;stroke-linecap:butt;stroke-linejoin:miter;stroke-opacity:1"
         sodipodi:type="arc" />
      <path
         style="fill:url(#linearGradient3750);fill-opacity:1;fill-rule:evenodd;stroke:none"
         d="m 282.33808,366.44327 c -1.73531,0.97161 -0.78805,0.51539 -2.78341,2.12051 -1.05726,-7.66342 2.95663,-10.59535 4.53241,-10.59535 -2.71547,4.88897 -1.749,8.47484 -1.749,8.47484 z"
         id="path3748"
         sodipodi:nodetypes="cccc"
         inkscape:connector-curvature="0" />
      <path
         sodipodi:nodetypes="cccc"
         id="path3766"
         d="m 288.73947,370.03269 c 0.53728,1.21237 0.78698,1.08829 2.29562,0.33283 -1.65766,5.49623 -6.40983,7.32807 -9.1808,3.56137 5.39172,1.21363 6.88518,-3.8942 6.88518,-3.8942 z"
         style="fill:url(#linearGradient3768);fill-opacity:1;fill-rule:evenodd;stroke:none"
         inkscape:connector-curvature="0" />
    </g>
    <path
       sodipodi:nodetypes="ccssc"
       id="path3982"
       d="m 545.23617,542.67598 c 2.37688,139.57872 -40.3592,207.03418 -166.21483,203.44657 -78.12297,1.19587 -109.26221,-89.17254 -109.26221,-224.25061 0,-135.07808 73.44768,-245.77638 143.9768,-245.77638 70.23506,0 131.29295,131.78518 131.50024,266.58042 z"
       style="fill:url(#linearGradient3990);fill-opacity:1;fill-rule:evenodd;stroke:none"
       inkscape:connector-curvature="0" />
    <path
       style="fill:#ffcc00;fill-rule:evenodd;stroke:#554400;stroke-width:2.21385646"
       d="m 469.2449,254.22639 c 8.50484,0.64314 8.1003,11.03683 3.15997,15.88865 -27.44089,21.45543 -79.06723,42.39552 -88.2777,42.67375 -17.7453,-0.8513 -76.97012,-52.79461 -62.63465,-59.39412 27.56706,-0.60037 59.26092,-20.7011 69.34922,-20.77256 6.9467,-0.24081 62.42036,24.29069 78.40316,21.60428 z"
       id="path3770"
       sodipodi:nodetypes="cccccc"
       inkscape:connector-curvature="0" />
    <g
       id="g4567"
       style="fill:#999999"
       transform="translate(-1.709754,-146)">
      <rect
         style="fill:#999999;fill-opacity:1;fill-rule:evenodd;stroke:#000000;stroke-width:2.38011003;stroke-linecap:butt;stroke-linejoin:round;stroke-miterlimit:4;stroke-dasharray:none;stroke-opacity:1"
         id="rect4034"
         width="335.70883"
         height="124.84685"
         x="879.12866"
         y="910.39819"
         transform="matrix(1,0,-0.71321023,0.70095019,0,0)" />
      <rect
         y="725.65155"
         x="141.2148"
         height="26.026926"
         width="334.61005"
         id="rect4042"
         style="fill:#999999;fill-opacity:1;fill-rule:evenodd;stroke:#000000;stroke-width:2;stroke-linecap:butt;stroke-linejoin:round;stroke-miterlimit:4;stroke-dasharray:none;stroke-opacity:1" />
      <rect
         transform="matrix(0.71943905,-0.69455558,0,1,0,0)"
         style="fill:#999999;fill-opacity:1;fill-rule:evenodd;stroke:#000000;stroke-width:2.87757277;stroke-linecap:butt;stroke-linejoin:round;stroke-miterlimit:4;stroke-dasharray:none;stroke-opacity:1"
         id="rect4044"
         width="201.70056"
         height="25.94207"
         x="661.36798"
         y="1185.0159" />
    </g>
    <rect
       style="fill:#002255;fill-rule:evenodd;stroke:none"
       id="rect3944"
       width="255.18201"
       height="82.214989"
       x="806.95392"
       y="742.28314"
       transform="matrix(1,0,-0.72132958,0.69259197,0,0)" />
    <path
       style="fill:#000000;fill-rule:evenodd;stroke:none"
       d="m 686.06585,542.66462 c -15.8939,12.76798 -56.99413,-29.79341 -77.72255,-33.85177 -91.38268,-2.6975 -148.75334,53.55805 -169.85486,8.94156 -17.579,-50.77809 139.92208,-124.99182 176.90725,-124.99182 42.28671,-8.27783 89.13626,149.20246 70.67016,149.90203 z"
       id="path3809"
       sodipodi:nodetypes="ccccc"
       inkscape:connector-curvature="0" />
    <rect
       style="fill:#0000ff;fill-rule:evenodd;stroke:#000000;stroke-width:2.41960526;stroke-linecap:butt;stroke-linejoin:round;stroke-miterlimit:4;stroke-dasharray:none;stroke-opacity:1"
       id="rect4565"
       width="333.66959"
       height="243.78348"
       x="-13.864566"
       y="355.50671"
       transform="matrix(1,0,0.25690478,0.96643672,0,0)" />
    <rect
       transform="matrix(1,0,0.25690478,0.96643672,0,0)"
       y="354.73517"
       x="-13.666358"
       height="243.78348"
       width="333.66959"
       id="rect3074"
       style="fill:url(#linearGradient3090);fill-opacity:1;fill-rule:evenodd;stroke:#000000;stroke-width:2.41960526;stroke-linecap:butt;stroke-linejoin:round;stroke-miterlimit:4;stroke-dasharray:none;stroke-opacity:1" />
    <rect
       style="fill:url(#linearGradient3108);fill-opacity:1;fill-rule:evenodd;stroke:#000000;stroke-width:2.41960526;stroke-linecap:butt;stroke-linejoin:round;stroke-miterlimit:4;stroke-dasharray:none;stroke-opacity:1"
       id="rect3092"
       width="333.66959"
       height="243.78348"
       x="-14.411982"
       y="354.7352"
       transform="matrix(1,0,0.25690478,0.96643672,0,0)" />
    <path
       style="fill:#554400;fill-rule:evenodd;stroke:#554400;stroke-width:6.04604197;stroke-linecap:butt;stroke-linejoin:miter;stroke-miterlimit:4;stroke-dasharray:none;stroke-opacity:1"
       d="M 288.64737,766.88387 C 258.52272,825.63581 38.109953,746.82395 52.731422,691.1767 c 10.514817,-8.14405 26.46038,-0.90081 34.914097,-11.86615 2.46794,-21.4048 -2.980572,-65.17676 3.896901,-72.89584 7.519236,-8.19625 48.47328,15.61276 62.86022,0.10187 9.23107,-9.9522 -1.905,-32.21567 3.51545,-39.50996 13.74681,-16.57363 162.1008,127.24452 130.72928,199.87721 l 0,4e-5 z"
       id="path3773"
       sodipodi:nodetypes="ccccsccc"
       inkscape:connector-curvature="0" />
    <path
       sodipodi:nodetypes="ccscscc"
       id="path3776"
       d="M 460.37582,810.65151 C 376.50707,806.1986 283.78818,612.46942 341.05612,588.89243 c 15.54642,2.80395 29.94232,26.91608 39.83998,27.45814 17.1545,0.93956 39.6542,-43.52276 52.01283,-43.22497 13.28927,0.48168 29.14302,54.62391 54.41307,55.65566 16.21399,0.66198 44.60096,-45.81943 55.44956,-46.36209 25.75052,-0.13969 8.23766,205.55991 -82.39574,228.23234 z"
       style="fill:#554400;fill-rule:evenodd;stroke:#554400;stroke-width:6.04699993;stroke-linecap:round;stroke-linejoin:round;stroke-miterlimit:4;stroke-dasharray:none;stroke-opacity:1"
       inkscape:connector-curvature="0" />
    <path
       style="fill:url(#linearGradient3807);fill-opacity:1;fill-rule:evenodd;stroke:none"
       d="m 490.5973,111.0671 c 6.98913,23.06516 -26.40449,23.87753 -31.2199,17.74657 -4.48963,-3.84747 -61.06227,-35.31863 -45.25391,-43.38279 22.43854,-6.33293 67.13051,2.89655 76.47381,25.63622 z"
       id="path3782"
       sodipodi:nodetypes="cccc"
       inkscape:connector-curvature="0" />
    <path
       sodipodi:nodetypes="cccccc"
       id="path3835"
       d="m 469.2449,254.22639 c 8.50484,0.64314 8.1003,11.03683 3.15997,15.88865 -27.44089,21.45543 -79.06723,42.39552 -88.2777,42.67375 -17.7453,-0.8513 -76.97012,-52.79461 -62.63465,-59.39412 27.56706,-0.60037 59.26092,-20.7011 69.34922,-20.77256 6.9467,-0.24081 62.42036,24.29069 78.40316,21.60428 z"
       style="opacity:0.70722429;fill:url(#linearGradient3843);fill-opacity:1;fill-rule:evenodd;stroke:#554400;stroke-width:2.21385646"
       inkscape:connector-curvature="0" />
    <path
       style="opacity:0.58935361;fill:url(#linearGradient3855);fill-opacity:1;fill-rule:evenodd;stroke:#554400;stroke-width:2.21385646"
       d="m 469.2449,254.22639 c 8.50484,0.64314 8.1003,11.03683 3.15997,15.88865 -27.44089,21.45543 -79.06723,42.39552 -88.2777,42.67375 -17.7453,-0.8513 -76.97012,-52.79461 -62.63465,-59.39412 27.56706,-0.60037 59.26092,-20.7011 69.34922,-20.77256 6.9467,-0.24081 62.42036,24.29069 78.40316,21.60428 z"
       id="path3847"
       sodipodi:nodetypes="cccccc"
       inkscape:connector-curvature="0" />
    <path
       style="fill:url(#linearGradient3845);fill-opacity:1;fill-rule:evenodd;stroke:none"
       d="m 470.05257,258.5338 c 0.0572,7.15086 -73.08144,28.75699 -83.29062,28.33844 -19.41719,0 -59.1095,-23.19728 -59.1095,-30.36316 17.79952,-0.75637 57.89294,-20.50881 61.93777,-20.59805 4.26854,0 52.78118,22.16866 80.46235,22.62277 z"
       id="path3832"
       sodipodi:nodetypes="ccccc"
       inkscape:connector-curvature="0" />
    <path
       style="fill:url(#linearGradient3880);fill-opacity:1;fill-rule:evenodd;stroke:none"
       d="m 620.74264,478.26105 c 15.00326,-3.8377 25.58022,27.64587 31.01049,13.33521 -3.33594,-16.45471 -9.89583,-24.90184 -53.49576,-29.87394 -117.02501,35.51492 -130.22139,9.81085 -16.57365,-46.16939 29.59577,-26.38446 -42.55704,-90.97352 -40.36364,-102.81182 5.09825,-12.27202 161.15306,134.7884 144.15571,219.65968 -5.73713,6.2983 -55.62248,-34.72008 -64.73315,-54.13974 z"
       id="path3863"
       sodipodi:nodetypes="ccccccc"
       inkscape:connector-curvature="0" />
    <path
       style="fill:none;stroke:#554400;stroke-width:2;stroke-linecap:round;stroke-linejoin:round;stroke-miterlimit:4;stroke-dasharray:none;stroke-opacity:1"
       d="m 325.65686,259.89919 c 42.86505,40.36702 63.91186,42.22366 144.70589,3.0856"
       id="path5999"
       sodipodi:nodetypes="cc"
       inkscape:connector-curvature="0" />
    <path
       sodipodi:nodetypes="ccccsccc"
       id="path3888"
       d="M 288.64737,766.88387 C 258.52272,825.63581 38.109953,746.82395 52.731422,691.1767 c 10.514817,-8.14405 26.46038,-0.90081 34.914097,-11.86615 2.46794,-21.4048 -2.980572,-65.17676 3.896901,-72.89584 7.519236,-8.19625 48.47328,15.61276 62.86022,0.10187 9.23107,-9.9522 -1.905,-32.21567 3.51545,-39.50996 13.74681,-16.57363 162.1008,127.24452 130.72928,199.87721 l 0,4e-5 z"
       style="fill:#ffcc00;fill-rule:evenodd;stroke:#554400;stroke-width:6.04604197;stroke-linecap:butt;stroke-linejoin:miter;stroke-miterlimit:4;stroke-dasharray:none;stroke-opacity:1"
       inkscape:connector-curvature="0" />
    <path
       style="fill:#ffcc00;fill-rule:evenodd;stroke:#554400;stroke-width:6.04699993;stroke-linecap:round;stroke-linejoin:round;stroke-miterlimit:4;stroke-dasharray:none;stroke-opacity:1"
       d="M 460.37582,810.65151 C 376.50707,806.1986 283.78818,612.46942 341.05612,588.89243 c 15.54642,2.80395 29.94232,26.91608 39.83998,27.45814 17.1545,0.93956 39.6542,-43.52276 52.01283,-43.22497 13.28927,0.48168 29.14302,54.62391 54.41307,55.65566 16.21399,0.66198 44.60096,-45.81943 55.44956,-46.36209 25.75052,-0.13969 8.23766,205.55991 -82.39574,228.23234 z"
       id="path3890"
       sodipodi:nodetypes="ccscscc"
       inkscape:connector-curvature="0" />
    <path
       sodipodi:nodetypes="ccscscc"
       id="path3892"
       d="m 460.37582,806.92339 c -79.53236,-3.36881 -172.98495,-189.82518 -119.3197,-214.30284 15.54642,2.80395 30.68794,26.91608 40.5856,27.45814 17.1545,0.93956 38.16296,-42.77714 50.52159,-42.47935 13.28927,0.48168 29.88864,53.13266 55.15869,54.16441 16.21399,0.66198 42.36409,-45.0738 53.21269,-45.61646 24.67759,0.21795 6.02797,199.58586 -80.15887,220.7761 z"
       style="opacity:1;fill:url(#linearGradient3900);fill-opacity:1;fill-rule:evenodd;stroke:none;stroke-width:6.04699993;stroke-linecap:round;stroke-linejoin:round;stroke-miterlimit:4;stroke-dasharray:none;stroke-opacity:1"
       inkscape:connector-curvature="0" />
    <path
       style="fill:url(#linearGradient3910);fill-opacity:1;fill-rule:evenodd;stroke:#554400;stroke-width:6.04604197;stroke-linecap:butt;stroke-linejoin:miter;stroke-miterlimit:4;stroke-dasharray:none;stroke-opacity:1"
       d="M 288.64737,766.88387 C 258.52272,825.63581 38.109953,746.82395 52.731422,691.1767 c 10.514817,-8.14405 26.46038,-0.90081 34.914097,-11.86615 2.46794,-21.4048 -2.980572,-65.17676 3.896901,-72.89584 7.519236,-8.19625 48.47328,15.61276 62.86022,0.10187 9.23107,-9.9522 -1.905,-32.21567 3.51545,-39.50996 13.74681,-16.57363 162.1008,127.24452 130.72928,199.87721 l 0,4e-5 z"
       id="path3902"
       sodipodi:nodetypes="ccccsccc"
       inkscape:connector-curvature="0" />
    <path
       style="fill:url(#linearGradient3924);fill-opacity:1;fill-rule:evenodd;stroke:none"
       d="M 461.72187,806.92339 C 387.97854,803.93794 301.32818,638.69997 351.08724,617.00782 c 14.41483,2.48487 28.45422,23.85308 37.63144,24.33345 15.90587,0.83264 35.38516,-37.90918 46.84422,-37.64527 12.32198,0.42686 27.71311,47.08626 51.14381,48.0006 15.03379,0.58664 39.28047,-39.94449 49.33941,-40.42539 22.88136,0.19314 5.58921,176.87335 -74.32425,195.65218 z"
       id="path3912"
       sodipodi:nodetypes="ccscscc"
       inkscape:connector-curvature="0" />
    <path
       sodipodi:nodetypes="ccccscz"
       id="path3926"
       d="M 286.32936,765.03234 C 258.16231,819.04792 54.673,750.11648 68.344319,698.95529 c 9.83153,-7.48751 24.740898,-0.8282 32.645271,-10.90955 2.30756,-19.67923 -2.786891,-59.92246 3.64367,-67.01927 7.03061,-7.5355 45.32332,14.35412 58.77535,0.0936 8.6312,-9.14989 -1.78121,-29.61856 3.287,-36.32482 12.8535,-15.23752 131.81731,122.40723 119.63375,180.23709 z"
       style="fill:url(#linearGradient3942);fill-opacity:1;fill-rule:evenodd;stroke:none"
       inkscape:connector-curvature="0" />
    <g
       transform="matrix(0.91654495,0,-0.27067659,-0.92293246,212.65283,540.28322)"
       inkscape:label="ink_ext_XXXXXX"
       id="g3639"
       style="opacity:0.7">
      <g
         transform="scale(0.1,0.1)"
         id="g3641">
        <path
           inkscape:connector-curvature="0"
           id="path3643"
           style="fill:#8a9cc8;fill-opacity:1;fill-rule:nonzero;stroke:none"
           d="m 1833.93,381.398 c 0,92.973 -7.65,184.051 -22.32,272.883 C 1575,446.922 1265.67,321.371 926.012,321.371 578.789,321.461 263.609,452.5 24.8398,668.23 8.73047,575.078 0.179688,479.32 0.179688,381.578 0.179688,347.109 1.35156,312.91 3.42188,278.98 267.57,102.852 584.73,0.0703125 926.012,-0.0195313 l 0.179,0 c 332.909,0 643.409,98.0078313 903.779,266.4885313 2.61,37.98 3.96,76.32 3.96,114.929" />
        <g
           id="g3645">
          <g
             clip-path="url(#clipPath3649)"
             id="g3647">
            <g
               clip-path="url(#clipPath3655)"
               id="g3653">
              <path
                 inkscape:connector-curvature="0"
                 id="path3665"
                 style="fill:url(#linearGradient3659);fill-opacity:1;fill-rule:nonzero;stroke:none"
                 d="m 872,0 0,1 -24,0 0,1 -18,0 0,1 -18,0 0,1 -16,0 0,1 -10,0 0,1 -11,0 0,1 -10,0 0,1 -11,0 0,1 -11,0 0,1 -9,0 0,1 -8,0 0,1 -7,0 0,1 -8,0 0,1 -7,0 0,1 -8,0 0,1 -8,0 0,1 -7,0 0,1 -7,0 0,1 -6,0 0,1 -6,0 0,1 -6,0 0,1 -6,0 0,1 -6,0 0,1 -6,0 0,1 -5,0 0,1 -6,0 0,1 -6,0 0,1 -6,0 0,1 -5,0 0,1 -5,0 0,1 -5,0 0,1 -4,0 0,1 -5,0 0,1 -5,0 0,1 -5,0 0,1 -4,0 0,1 -5,0 0,1 -5,0 0,1 -5,0 0,1 -5,0 0,1 -4,0 0,1 -4,0 0,1 -4,0 0,1 -4,0 0,1 -4,0 0,1 -4,0 0,1 -4,0 0,1 -4,0 0,1 -5,0 0,1 -4,0 0,1 -4,0 0,1 -4,0 0,1 -4,0 0,1 -4,0 0,1 -4,0 0,1 -4,0 0,1 -3,0 0,1 -3,0 0,1 -4,0 0,1 -3,0 0,1 -4,0 0,1 -3,0 0,1 -4,0 0,1 -3,0 0,1 -4,0 0,1 -3,0 0,1 -4,0 0,1 -3,0 0,1 -4,0 0,1 -3,0 0,1 -4,0 0,1 -3,0 0,1 -3,0 0,1 -3,0 0,1 -3,0 0,1 -3,0 0,1 -4,0 0,1 -3,0 0,1 -3,0 0,1 -3,0 0,1 -3,0 0,1 -3,0 0,1 -3,0 0,1 -3,0 0,1 -3,0 0,1 -3,0 0,1 -3,0 0,1 -3,0 0,1 -3,0 0,1 -3,0 0,1 -3,0 0,1 -3,0 0,1 -3,0 0,1 -2,0 0,1 -3,0 0,1 -3,0 0,1 -3,0 0,1 -2,0 0,1 -3,0 0,1 -3,0 0,1 -2,0 0,1 -3,0 0,1 -3,0 0,1 -3,0 0,1 -2,0 0,1 -3,0 0,1 -3,0 0,1 -2,0 0,1 -3,0 0,1 -3,0 0,1 -2,0 0,1 -3,0 0,1 -3,0 0,1 -2,0 0,1 -3,0 0,1 -2,0 0,1 -2,0 0,1 -3,0 0,1 -2,0 0,1 -3,0 0,1 -2,0 0,1 -3,0 0,1 -2,0 0,1 -2,0 0,1 -3,0 0,1 -2,0 0,1 -3,0 0,1 -2,0 0,1 -3,0 0,1 -2,0 0,1 -2,0 0,1 -3,0 0,1 -2,0 0,1 -3,0 0,1 -2,0 0,1 -2,0 0,1 -3,0 0,1 -2,0 0,1 -2,0 0,1 -2,0 0,1 -2,0 0,1 -3,0 0,1 -2,0 0,1 -2,0 0,1 -2,0 0,1 -2,0 0,1 -3,0 0,1 -2,0 0,1 -2,0 0,1 -2,0 0,1 -2,0 0,1 -3,0 0,1 -2,0 0,1 -2,0 0,1 -2,0 0,1 -2,0 0,1 -3,0 0,1 -2,0 0,1 -2,0 0,1 -2,0 0,1 -2,0 0,1 -2,0 0,1 -2,0 0,1 -2,0 0,1 -2,0 0,1 -2,0 0,1 -2,0 0,1 -2,0 0,1 -2,0 0,1 -2,0 0,1 -2,0 0,1 -2,0 0,1 -2,0 0,1 -2,0 0,1 -2,0 0,1 -2,0 0,1 -2,0 0,1 -2,0 0,1 -2,0 0,1 -2,0 0,1 -2,0 0,1 -2,0 0,1 -2,0 0,1 -2,0 0,1 -2,0 0,1 -2,0 0,1 -2,0 0,1 -2,0 0,1 -2,0 0,1 -2,0 0,1 -2,0 0,1 -2,0 0,1 -1,0 0,1 -2,0 0,1 -2,0 0,1 -2,0 0,1 -2,0 0,1 -2,0 0,1 -1,0 0,1 -2,0 0,1 -2,0 0,1 -2,0 0,1 -2,0 0,1 -2,0 0,1 -1,0 0,1 -2,0 0,1 -2,0 0,1 -2,0 0,1 -2,0 0,1 -2,0 0,1 -1,0 0,1 -2,0 0,1 -2,0 0,1 -2,0 0,1 -2,0 0,1 -2,0 0,1 -1,0 0,1 -2,0 0,1 -2,0 0,1 -1,0 0,1 -2,0 0,1 -2,0 0,1 -1,0 0,1 -2,0 0,1 -2,0 0,1 -1,0 0,1 -2,0 0,1 -2,0 0,1 -2,0 0,1 -1,0 0,1 -2,0 0,1 -2,0 0,1 -1,0 0,1 -2,0 0,1 -2,0 0,1 -1,0 0,1 -2,0 0,1 -2,0 0,1 -1,0 0,1 -2,0 0,1 -2,0 0,1 -1,0 0,1 -2,0 0,1 -2,0 0,1 -2,0 0,1 -1,0 0,1 -2,0 0,1 -1,0 0,1 -2,0 0,1 -1,0 0,1 -2,0 0,1 -2,0 0,1 -1,0 0,1 -2,0 0,1 -1,0 0,1 -2,0 0,1 -1,0 0,1 -2,0 0,1 -1,0 0,1 -2,0 0,1 -2,0 0,1 -1,0 0,1 -2,0 0,1 -1,0 0,1 -2,0 0,1 -1,0 0,1 -2,0 0,1 -2,0 0,1 -1,0 0,1 -2,0 0,1 -1,0 0,1 -2,0 0,1 -1,0 0,1 -2,0 0,1 -1,0 0,1 -2,0 0,1 -2,0 0,1 -1,0 0,9 -1,0 0,19 -1,0 0,37 -1,0 0,91 1,0 0,22 1,0 0,21 1,0 0,17 1,0 0,13 1,0 0,12 1,0 0,13 1,0 0,11 1,0 0,9 1,0 0,9 1,0 0,10 1,0 0,9 1,0 0,9 1,0 0,8 1,0 0,7 1,0 0,7 1,0 0,7 1,0 0,7 1,0 0,7 1,0 0,7 1,0 0,7 1,0 0,6 1,0 0,6 1,0 0,6 1,0 0,5 1,0 0,-1 2,0 0,-1 1,0 0,-1 1,0 0,-1 1,0 0,-1 1,0 0,-1 1,0 0,-1 2,0 0,-1 1,0 0,-1 1,0 0,-1 1,0 0,-1 1,0 0,-1 2,0 0,-1 1,0 0,-1 1,0 0,-1 1,0 0,-1 1,0 0,-1 1,0 0,-1 2,0 0,-1 1,0 0,-1 1,0 0,-1 1,0 0,-1 1,0 0,-1 1,0 0,-1 2,0 0,-1 1,0 0,-1 1,0 0,-1 1,0 0,-1 1,0 0,-1 2,0 0,-1 1,0 0,-1 1,0 0,-1 1,0 0,-1 1,0 0,-1 1,0 0,-1 2,0 0,-1 1,0 0,-1 1,0 0,-1 1,0 0,-1 1,0 0,-1 1,0 0,-1 2,0 0,-1 1,0 0,-1 1,0 0,-1 1,0 0,-1 1,0 0,-1 2,0 0,-1 1,0 0,-1 1,0 0,-1 1,0 0,-1 1,0 0,-1 1,0 0,-1 2,0 0,-1 1,0 0,-1 1,0 0,-1 2,0 0,-1 1,0 0,-1 1,0 0,-1 2,0 0,-1 1,0 0,-1 1,0 0,-1 1,0 0,-1 2,0 0,-1 1,0 0,-1 1,0 0,-1 2,0 0,-1 1,0 0,-1 1,0 0,-1 2,0 0,-1 1,0 0,-1 1,0 0,-1 2,0 0,-1 1,0 0,-1 1,0 0,-1 2,0 0,-1 1,0 0,-1 1,0 0,-1 2,0 0,-1 1,0 0,-1 1,0 0,-1 2,0 0,-1 1,0 0,-1 1,0 0,-1 2,0 0,-1 1,0 0,-1 1,0 0,-1 2,0 0,-1 1,0 0,-1 1,0 0,-1 2,0 0,-1 1,0 0,-1 1,0 0,-1 2,0 0,-1 1,0 0,-1 1,0 0,-1 2,0 0,-1 1,0 0,-1 1,0 0,-1 2,0 0,-1 1,0 0,-1 1,0 0,-1 2,0 0,-1 1,0 0,-1 2,0 0,-1 1,0 0,-1 2,0 0,-1 1,0 0,-1 2,0 0,-1 1,0 0,-1 2,0 0,-1 1,0 0,-1 2,0 0,-1 1,0 0,-1 2,0 0,-1 1,0 0,-1 2,0 0,-1 1,0 0,-1 2,0 0,-1 1,0 0,-1 2,0 0,-1 1,0 0,-1 2,0 0,-1 1,0 0,-1 2,0 0,-1 1,0 0,-1 2,0 0,-1 1,0 0,-1 2,0 0,-1 1,0 0,-1 2,0 0,-1 1,0 0,-1 2,0 0,-1 1,0 0,-1 2,0 0,-1 2,0 0,-1 1,0 0,-1 2,0 0,-1 1,0 0,-1 2,0 0,-1 1,0 0,-1 2,0 0,-1 1,0 0,-1 2,0 0,-1 1,0 0,-1 2,0 0,-1 1,0 0,-1 2,0 0,-1 1,0 0,-1 2,0 0,-1 2,0 0,-1 2,0 0,-1 1,0 0,-1 2,0 0,-1 2,0 0,-1 2,0 0,-1 1,0 0,-1 2,0 0,-1 2,0 0,-1 1,0 0,-1 2,0 0,-1 2,0 0,-1 2,0 0,-1 1,0 0,-1 2,0 0,-1 2,0 0,-1 2,0 0,-1 1,0 0,-1 2,0 0,-1 2,0 0,-1 1,0 0,-1 2,0 0,-1 2,0 0,-1 2,0 0,-1 1,0 0,-1 2,0 0,-1 2,0 0,-1 2,0 0,-1 1,0 0,-1 2,0 0,-1 2,0 0,-1 1,0 0,-1 2,0 0,-1 2,0 0,-1 2,0 0,-1 1,0 0,-1 2,0 0,-1 2,0 0,-1 2,0 0,-1 1,0 0,-1 2,0 0,-1 2,0 0,-1 2,0 0,-1 2,0 0,-1 2,0 0,-1 2,0 0,-1 2,0 0,-1 2,0 0,-1 2,0 0,-1 2,0 0,-1 2,0 0,-1 2,0 0,-1 2,0 0,-1 2,0 0,-1 2,0 0,-1 2,0 0,-1 2,0 0,-1 2,0 0,-1 2,0 0,-1 3,0 0,-1 2,0 0,-1 2,0 0,-1 2,0 0,-1 2,0 0,-1 2,0 0,-1 2,0 0,-1 2,0 0,-1 2,0 0,-1 2,0 0,-1 2,0 0,-1 2,0 0,-1 2,0 0,-1 2,0 0,-1 2,0 0,-1 2,0 0,-1 2,0 0,-1 3,0 0,-1 2,0 0,-1 2,0 0,-1 2,0 0,-1 2,0 0,-1 2,0 0,-1 3,0 0,-1 2,0 0,-1 2,0 0,-1 3,0 0,-1 2,0 0,-1 3,0 0,-1 2,0 0,-1 2,0 0,-1 3,0 0,-1 2,0 0,-1 3,0 0,-1 2,0 0,-1 2,0 0,-1 3,0 0,-1 2,0 0,-1 3,0 0,-1 2,0 0,-1 3,0 0,-1 2,0 0,-1 2,0 0,-1 3,0 0,-1 2,0 0,-1 3,0 0,-1 2,0 0,-1 2,0 0,-1 3,0 0,-1 2,0 0,-1 3,0 0,-1 2,0 0,-1 3,0 0,-1 3,0 0,-1 3,0 0,-1 2,0 0,-1 3,0 0,-1 3,0 0,-1 3,0 0,-1 3,0 0,-1 3,0 0,-1 3,0 0,-1 3,0 0,-1 3,0 0,-1 2,0 0,-1 3,0 0,-1 3,0 0,-1 3,0 0,-1 3,0 0,-1 3,0 0,-1 3,0 0,-1 3,0 0,-1 3,0 0,-1 2,0 0,-1 3,0 0,-1 3,0 0,-1 3,0 0,-1 3,0 0,-1 3,0 0,-1 4,0 0,-1 3,0 0,-1 4,0 0,-1 4,0 0,-1 3,0 0,-1 4,0 0,-1 3,0 0,-1 4,0 0,-1 3,0 0,-1 4,0 0,-1 3,0 0,-1 4,0 0,-1 4,0 0,-1 3,0 0,-1 4,0 0,-1 3,0 0,-1 4,0 0,-1 3,0 0,-1 4,0 0,-1 4,0 0,-1 3,0 0,-1 5,0 0,-1 4,0 0,-1 5,0 0,-1 5,0 0,-1 4,0 0,-1 5,0 0,-1 4,0 0,-1 5,0 0,-1 5,0 0,-1 4,0 0,-1 5,0 0,-1 5,0 0,-1 4,0 0,-1 5,0 0,-1 4,0 0,-1 5,0 0,-1 5,0 0,-1 6,0 0,-1 6,0 0,-1 7,0 0,-1 6,0 0,-1 7,0 0,-1 6,0 0,-1 7,0 0,-1 6,0 0,-1 7,0 0,-1 6,0 0,-1 7,0 0,-1 6,0 0,-1 9,0 0,-1 11,0 0,-1 11,0 0,-1 11,0 0,-1 11,0 0,-1 10,0 0,-1 11,0 0,-1 11,0 0,-1 31,0 0,-1 33,0 0,-1 42,0 0,1 35,0 0,1 25,0 0,1 12,0 0,1 12,0 0,1 11,0 0,1 12,0 0,1 12,0 0,1 11,0 0,1 8,0 0,1 7,0 0,1 7,0 0,1 7,0 0,1 7,0 0,1 7,0 0,1 7,0 0,1 7,0 0,1 7,0 0,1 7,0 0,1 7,0 0,1 5,0 0,1 5,0 0,1 5,0 0,1 5,0 0,1 5,0 0,1 5,0 0,1 5,0 0,1 5,0 0,1 5,0 0,1 4,0 0,1 5,0 0,1 5,0 0,1 5,0 0,1 5,0 0,1 5,0 0,1 4,0 0,1 4,0 0,1 4,0 0,1 4,0 0,1 3,0 0,1 4,0 0,1 4,0 0,1 4,0 0,1 4,0 0,1 4,0 0,1 3,0 0,1 4,0 0,1 4,0 0,1 4,0 0,1 4,0 0,1 3,0 0,1 4,0 0,1 4,0 0,1 4,0 0,1 3,0 0,1 3,0 0,1 3,0 0,1 3,0 0,1 3,0 0,1 4,0 0,1 3,0 0,1 3,0 0,1 3,0 0,1 3,0 0,1 3,0 0,1 3,0 0,1 3,0 0,1 3,0 0,1 3,0 0,1 4,0 0,1 3,0 0,1 3,0 0,1 3,0 0,1 3,0 0,1 3,0 0,1 3,0 0,1 3,0 0,1 3,0 0,1 2,0 0,1 3,0 0,1 3,0 0,1 2,0 0,1 3,0 0,1 2,0 0,1 3,0 0,1 3,0 0,1 2,0 0,1 3,0 0,1 2,0 0,1 3,0 0,1 3,0 0,1 2,0 0,1 3,0 0,1 2,0 0,1 3,0 0,1 3,0 0,1 2,0 0,1 3,0 0,1 2,0 0,1 3,0 0,1 3,0 0,1 2,0 0,1 3,0 0,1 2,0 0,1 2,0 0,1 3,0 0,1 2,0 0,1 2,0 0,1 2,0 0,1 2,0 0,1 3,0 0,1 2,0 0,1 2,0 0,1 2,0 0,1 3,0 0,1 2,0 0,1 2,0 0,1 2,0 0,1 2,0 0,1 3,0 0,1 2,0 0,1 2,0 0,1 2,0 0,1 3,0 0,1 2,0 0,1 2,0 0,1 2,0 0,1 2,0 0,1 3,0 0,1 2,0 0,1 2,0 0,1 2,0 0,1 2,0 0,1 3,0 0,-8 1,0 0,-38 1,0 0,-55 -1,0 0,-37 -1,0 0,-18 -1,0 0,-13 -1,0 0,-12 -1,0 0,-12 -1,0 0,-13 -1,0 0,-12 -1,0 0,-8 -1,0 0,-7 -1,0 0,-8 -1,0 0,-7 -1,0 0,-8 -1,0 0,-7 -1,0 0,-7 -1,0 0,-8 -1,0 0,-7 -1,0 0,-7 -1,0 0,-5 -1,0 0,-6 -1,0 0,-5 -1,0 0,-5 -1,0 0,-5 -1,0 0,-6 -1,0 0,-5 -1,0 0,-5 -1,0 0,-6 -1,0 0,-5 -1,0 0,-5 -1,0 0,-5 -1,0 0,-3 3,0 0,1 2,0 0,1 3,0 0,1 3,0 0,1 2,0 0,1 3,0 0,1 2,0 0,1 3,0 0,1 3,0 0,1 2,0 0,1 3,0 0,1 3,0 0,1 2,0 0,1 3,0 0,1 2,0 0,1 3,0 0,1 3,0 0,1 2,0 0,1 3,0 0,1 3,0 0,1 2,0 0,1 3,0 0,1 2,0 0,1 3,0 0,1 3,0 0,1 2,0 0,1 3,0 0,1 2,0 0,1 3,0 0,1 2,0 0,1 2,0 0,1 3,0 0,1 2,0 0,1 2,0 0,1 2,0 0,1 3,0 0,1 2,0 0,1 2,0 0,1 3,0 0,1 2,0 0,1 2,0 0,1 2,0 0,1 3,0 0,1 2,0 0,1 2,0 0,1 3,0 0,1 2,0 0,1 2,0 0,1 3,0 0,1 2,0 0,1 2,0 0,1 2,0 0,1 3,0 0,1 2,0 0,1 2,0 0,1 3,0 0,1 2,0 0,1 2,0 0,1 2,0 0,1 3,0 0,1 2,0 0,1 2,0 0,1 2,0 0,1 2,0 0,1 2,0 0,1 2,0 0,1 2,0 0,1 2,0 0,1 2,0 0,1 2,0 0,1 2,0 0,1 2,0 0,1 2,0 0,1 2,0 0,1 2,0 0,1 2,0 0,1 2,0 0,1 2,0 0,1 2,0 0,1 2,0 0,1 2,0 0,1 2,0 0,1 2,0 0,1 2,0 0,1 2,0 0,1 2,0 0,1 2,0 0,1 2,0 0,1 2,0 0,1 2,0 0,1 2,0 0,1 2,0 0,1 2,0 0,1 2,0 0,1 2,0 0,1 2,0 0,1 2,0 0,1 2,0 0,1 1,0 0,1 2,0 0,1 2,0 0,1 2,0 0,1 2,0 0,1 2,0 0,1 1,0 0,1 2,0 0,1 2,0 0,1 2,0 0,1 2,0 0,1 1,0 0,1 2,0 0,1 2,0 0,1 2,0 0,1 2,0 0,1 1,0 0,1 2,0 0,1 2,0 0,1 2,0 0,1 2,0 0,1 1,0 0,1 2,0 0,1 2,0 0,1 2,0 0,1 2,0 0,1 1,0 0,1 2,0 0,1 2,0 0,1 2,0 0,1 2,0 0,1 1,0 0,1 2,0 0,1 3,0 0,-1 -2,0 0,-1 -1,0 0,-1 -2,0 0,-1 -2,0 0,-1 -2,0 0,-1 -2,0 0,-1 -1,0 0,-1 -2,0 0,-1 -2,0 0,-1 -2,0 0,-1 -1,0 0,-1 -2,0 0,-1 -2,0 0,-1 -2,0 0,-1 -1,0 0,-1 -2,0 0,-1 -2,0 0,-1 -2,0 0,-1 -2,0 0,-1 -1,0 0,-1 -2,0 0,-1 -2,0 0,-1 -2,0 0,-1 -1,0 0,-1 -2,0 0,-1 -2,0 0,-1 -2,0 0,-1 -2,0 0,-1 -2,0 0,-1 -2,0 0,-1 -1,0 0,-1 -2,0 0,-1 -2,0 0,-1 -2,0 0,-1 -2,0 0,-1 -2,0 0,-1 -2,0 0,-1 -2,0 0,-1 -2,0 0,-1 -2,0 0,-1 -2,0 0,-1 -1,0 0,-1 -2,0 0,-1 -2,0 0,-1 -2,0 0,-1 -2,0 0,-1 -2,0 0,-1 -2,0 0,-1 -2,0 0,-1 -2,0 0,-1 -2,0 0,-1 -2,0 0,-1 -2,0 0,-1 -2,0 0,-1 -2,0 0,-1 -2,0 0,-1 -2,0 0,-1 -2,0 0,-1 -2,0 0,-1 -2,0 0,-1 -2,0 0,-1 -2,0 0,-1 -3,0 0,-1 -2,0 0,-1 -2,0 0,-1 -2,0 0,-1 -2,0 0,-1 -2,0 0,-1 -2,0 0,-1 -2,0 0,-1 -2,0 0,-1 -2,0 0,-1 -2,0 0,-1 -2,0 0,-1 -2,0 0,-1 -3,0 0,-1 -2,0 0,-1 -2,0 0,-1 -2,0 0,-1 -3,0 0,-1 -2,0 0,-1 -2,0 0,-1 -2,0 0,-1 -3,0 0,-1 -2,0 0,-1 -2,0 0,-1 -3,0 0,-1 -2,0 0,-1 -2,0 0,-1 -2,0 0,-1 -3,0 0,-1 -2,0 0,-1 -2,0 0,-1 -2,0 0,-1 -3,0 0,-1 -2,0 0,-1 -2,0 0,-1 -3,0 0,-1 -2,0 0,-1 -3,0 0,-1 -2,0 0,-1 -3,0 0,-1 -2,0 0,-1 -2,0 0,-1 -3,0 0,-1 -2,0 0,-1 -3,0 0,-1 -2,0 0,-1 -3,0 0,-1 -2,0 0,-1 -3,0 0,-1 -2,0 0,-1 -3,0 0,-1 -2,0 0,-1 -3,0 0,-1 -2,0 0,-1 -3,0 0,-1 -2,0 0,-1 -3,0 0,-1 -3,0 0,-1 -2,0 0,-1 -3,0 0,-1 -3,0 0,-1 -3,0 0,-1 -2,0 0,-1 -3,0 0,-1 -3,0 0,-1 -3,0 0,-1 -2,0 0,-1 -3,0 0,-1 -3,0 0,-1 -2,0 0,-1 -3,0 0,-1 -3,0 0,-1 -3,0 0,-1 -2,0 0,-1 -3,0 0,-1 -4,0 0,-1 -3,0 0,-1 -3,0 0,-1 -3,0 0,-1 -3,0 0,-1 -3,0 0,-1 -3,0 0,-1 -3,0 0,-1 -3,0 0,-1 -3,0 0,-1 -3,0 0,-1 -3,0 0,-1 -3,0 0,-1 -3,0 0,-1 -3,0 0,-1 -3,0 0,-1 -3,0 0,-1 -4,0 0,-1 -3,0 0,-1 -4,0 0,-1 -3,0 0,-1 -3,0 0,-1 -4,0 0,-1 -3,0 0,-1 -4,0 0,-1 -3,0 0,-1 -4,0 0,-1 -3,0 0,-1 -3,0 0,-1 -4,0 0,-1 -3,0 0,-1 -4,0 0,-1 -4,0 0,-1 -4,0 0,-1 -3,0 0,-1 -4,0 0,-1 -4,0 0,-1 -4,0 0,-1 -4,0 0,-1 -4,0 0,-1 -4,0 0,-1 -4,0 0,-1 -4,0 0,-1 -3,0 0,-1 -4,0 0,-1 -5,0 0,-1 -4,0 0,-1 -5,0 0,-1 -4,0 0,-1 -5,0 0,-1 -4,0 0,-1 -5,0 0,-1 -4,0 0,-1 -5,0 0,-1 -4,0 0,-1 -5,0 0,-1 -4,0 0,-1 -5,0 0,-1 -6,0 0,-1 -5,0 0,-1 -5,0 0,-1 -6,0 0,-1 -5,0 0,-1 -5,0 0,-1 -6,0 0,-1 -5,0 0,-1 -5,0 0,-1 -7,0 0,-1 -6,0 0,-1 -7,0 0,-1 -6,0 0,-1 -7,0 0,-1 -6,0 0,-1 -7,0 0,-1 -6,0 0,-1 -7,0 0,-1 -9,0 0,-1 -8,0 0,-1 -8,0 0,-1 -9,0 0,-1 -8,0 0,-1 -9,0 0,-1 -10,0 0,-1 -12,0 0,-1 -12,0 0,-1 -12,0 0,-1 -11,0 0,-1 -19,0 0,-1 -19,0 0,-1 -20,0 0,-1 -113,0 z m 900,231 0,1 2,0 0,1 1,0 0,-2" />
            </g>
          </g>
        </g>
        <path
           inkscape:connector-curvature="0"
           id="path3667"
           style="fill:#8a9cc8;fill-opacity:1;fill-rule:nonzero;stroke:none"
           d="M 917.012,1869.73 C 801.09,1811.32 693,1739.68 594.539,1656.88 1127.88,1478.59 1513.08,974.949 1512.72,381.488 c 0,-98.187 -10.62,-193.859 -30.6,-286.0192 123.21,43.6522 239.94,101.1602 347.94,171.0002 2.61,37.98 4.05,76.32 4.05,114.929 -0.27,650.882 -373.05,1214.102 -917.098,1488.332" />
        <g
           id="g3669">
          <g
             clip-path="url(#clipPath3673)"
             id="g3671">
            <g
               clip-path="url(#clipPath3679)"
               id="g3677">
              <path
                 inkscape:connector-curvature="0"
                 id="path3689"
                 style="fill:url(#linearGradient3683);fill-opacity:1;fill-rule:nonzero;stroke:none"
                 d="m 1482,95 0,6 1,0 0,5 1,0 0,5 1,0 0,5 1,0 0,6 1,0 0,5 1,0 0,5 1,0 0,6 1,0 0,5 1,0 0,5 1,0 0,5 1,0 0,6 1,0 0,5 1,0 0,7 1,0 0,7 1,0 0,7 1,0 0,8 1,0 0,7 1,0 0,8 1,0 0,7 1,0 0,8 1,0 0,7 1,0 0,8 1,0 0,12 1,0 0,12 1,0 0,13 1,0 0,12 1,0 0,13 1,0 0,18 1,0 0,37 1,0 0,71 -1,0 0,21 -1,0 0,21 -1,0 0,13 -1,0 0,12 -1,0 0,13 -1,0 0,10 -1,0 0,9 -1,0 0,9 -1,0 0,9 -1,0 0,9 -1,0 0,7 -1,0 0,7 -1,0 0,7 -1,0 0,7 -1,0 0,7 -1,0 0,7 -1,0 0,6 -1,0 0,6 -1,0 0,5 -1,0 0,6 -1,0 0,6 -1,0 0,5 -1,0 0,6 -1,0 0,5 -1,0 0,5 -1,0 0,5 -1,0 0,5 -1,0 0,4 -1,0 0,5 -1,0 0,5 -1,0 0,5 -1,0 0,5 -1,0 0,4 -1,0 0,4 -1,0 0,4 -1,0 0,4 -1,0 0,4 -1,0 0,4 -1,0 0,5 -1,0 0,4 -1,0 0,4 -1,0 0,4 -1,0 0,3 -1,0 0,4 -1,0 0,4 -1,0 0,3 -1,0 0,4 -1,0 0,4 -1,0 0,3 -1,0 0,4 -1,0 0,4 -1,0 0,3 -1,0 0,4 -1,0 0,3 -1,0 0,3 -1,0 0,4 -1,0 0,3 -1,0 0,3 -1,0 0,3 -1,0 0,3 -1,0 0,4 -1,0 0,3 -1,0 0,3 -1,0 0,3 -1,0 0,4 -1,0 0,3 -1,0 0,3 -1,0 0,2 -1,0 0,3 -1,0 0,3 -1,0 0,3 -1,0 0,3 -1,0 0,3 -1,0 0,3 -1,0 0,3 -1,0 0,3 -1,0 0,3 -1,0 0,3 -1,0 0,2 -1,0 0,3 -1,0 0,3 -1,0 0,2 -1,0 0,3 -1,0 0,3 -1,0 0,2 -1,0 0,3 -1,0 0,2 -1,0 0,3 -1,0 0,3 -1,0 0,2 -1,0 0,3 -1,0 0,3 -1,0 0,2 -1,0 0,3 -1,0 0,2 -1,0 0,3 -1,0 0,2 -1,0 0,2 -1,0 0,3 -1,0 0,2 -1,0 0,3 -1,0 0,2 -1,0 0,3 -1,0 0,2 -1,0 0,2 -1,0 0,3 -1,0 0,2 -1,0 0,3 -1,0 0,2 -1,0 0,2 -1,0 0,2 -1,0 0,3 -1,0 0,2 -1,0 0,2 -1,0 0,2 -1,0 0,3 -1,0 0,2 -1,0 0,2 -1,0 0,2 -1,0 0,2 -1,0 0,3 -1,0 0,2 -1,0 0,2 -1,0 0,2 -1,0 0,3 -1,0 0,2 -1,0 0,2 -1,0 0,2 -1,0 0,2 -1,0 0,2 -1,0 0,2 -1,0 0,2 -1,0 0,2 -1,0 0,2 -1,0 0,2 -1,0 0,2 -1,0 0,2 -1,0 0,2 -1,0 0,2 -1,0 0,2 -1,0 0,2 -1,0 0,2 -1,0 0,3 -1,0 0,1 -1,0 0,2 -1,0 0,2 -1,0 0,2 -1,0 0,2 -1,0 0,2 -1,0 0,2 -1,0 0,2 -1,0 0,2 -1,0 0,2 -1,0 0,2 -1,0 0,1 -1,0 0,2 -1,0 0,2 -1,0 0,2 -1,0 0,2 -1,0 0,2 -1,0 0,2 -1,0 0,2 -1,0 0,2 -1,0 0,1 -1,0 0,2 -1,0 0,2 -1,0 0,2 -1,0 0,1 -1,0 0,2 -1,0 0,2 -1,0 0,2 -1,0 0,1 -1,0 0,2 -1,0 0,2 -1,0 0,2 -1,0 0,2 -1,0 0,1 -1,0 0,2 -1,0 0,2 -1,0 0,2 -1,0 0,1 -1,0 0,2 -1,0 0,2 -1,0 0,2 -1,0 0,1 -1,0 0,2 -1,0 0,1 -1,0 0,2 -1,0 0,2 -1,0 0,1 -1,0 0,2 -1,0 0,2 -1,0 0,1 -1,0 0,2 -1,0 0,2 -1,0 0,1 -1,0 0,2 -1,0 0,2 -1,0 0,1 -1,0 0,2 -1,0 0,2 -1,0 0,1 -1,0 0,2 -1,0 0,1 -1,0 0,2 -1,0 0,2 -1,0 0,1 -1,0 0,2 -1,0 0,1 -1,0 0,2 -1,0 0,1 -1,0 0,2 -1,0 0,1 -1,0 0,2 -1,0 0,1 -1,0 0,2 -1,0 0,2 -1,0 0,1 -1,0 0,2 -1,0 0,1 -1,0 0,2 -1,0 0,1 -1,0 0,2 -1,0 0,1 -1,0 0,2 -1,0 0,1 -1,0 0,2 -1,0 0,1 -1,0 0,2 -1,0 0,1 -1,0 0,2 -1,0 0,1 -1,0 0,1 -1,0 0,2 -1,0 0,1 -1,0 0,2 -1,0 0,1 -1,0 0,2 -1,0 0,1 -1,0 0,2 -1,0 0,1 -1,0 0,1 -1,0 0,2 -1,0 0,1 -1,0 0,2 -1,0 0,1 -1,0 0,2 -1,0 0,1 -1,0 0,2 -1,0 0,1 -1,0 0,1 -1,0 0,2 -1,0 0,1 -1,0 0,1 -1,0 0,2 -1,0 0,1 -1,0 0,1 -1,0 0,2 -1,0 0,1 -1,0 0,2 -1,0 0,1 -1,0 0,1 -1,0 0,2 -1,0 0,1 -1,0 0,1 -1,0 0,2 -1,0 0,1 -1,0 0,1 -1,0 0,2 -1,0 0,1 -1,0 0,1 -1,0 0,2 -1,0 0,1 -1,0 0,1 -1,0 0,2 -1,0 0,1 -1,0 0,1 -1,0 0,1 -1,0 0,2 -1,0 0,1 -1,0 0,1 -1,0 0,2 -1,0 0,1 -1,0 0,1 -1,0 0,1 -1,0 0,2 -1,0 0,1 -1,0 0,1 -1,0 0,2 -1,0 0,1 -1,0 0,1 -1,0 0,1 -1,0 0,2 -1,0 0,1 -1,0 0,1 -1,0 0,1 -1,0 0,2 -1,0 0,1 -1,0 0,1 -1,0 0,1 -1,0 0,2 -1,0 0,1 -1,0 0,1 -1,0 0,1 -1,0 0,1 -1,0 0,2 -1,0 0,1 -1,0 0,1 -1,0 0,1 -1,0 0,1 -1,0 0,2 -1,0 0,1 -1,0 0,1 -1,0 0,1 -1,0 0,1 -1,0 0,2 -1,0 0,1 -1,0 0,1 -1,0 0,1 -1,0 0,1 -1,0 0,2 -1,0 0,1 -1,0 0,1 -1,0 0,1 -1,0 0,1 -1,0 0,1 -1,0 0,1 -1,0 0,2 -1,0 0,1 -1,0 0,1 -1,0 0,1 -1,0 0,1 -1,0 0,1 -1,0 0,1 -1,0 0,2 -1,0 0,1 -1,0 0,1 -1,0 0,1 -1,0 0,1 -1,0 0,1 -1,0 0,1 -1,0 0,1 -1,0 0,2 -1,0 0,1 -1,0 0,1 -1,0 0,1 -1,0 0,1 -1,0 0,1 -1,0 0,1 -1,0 0,1 -1,0 0,2 -1,0 0,1 -1,0 0,1 -1,0 0,1 -1,0 0,1 -1,0 0,1 -1,0 0,1 -1,0 0,1 -1,0 0,1 -1,0 0,1 -1,0 0,1 -1,0 0,1 -1,0 0,1 -1,0 0,1 -1,0 0,1 -1,0 0,1 -1,0 0,2 -1,0 0,1 -1,0 0,1 -1,0 0,1 -1,0 0,1 -1,0 0,1 -1,0 0,1 -1,0 0,1 -1,0 0,1 -1,0 0,1 -1,0 0,1 -1,0 0,1 -1,0 0,1 -1,0 0,1 -1,0 0,1 -1,0 0,1 -1,0 0,1 -1,0 0,1 -1,0 0,1 -1,0 0,1 -1,0 0,1 -1,0 0,1 -1,0 0,1 -1,0 0,1 -1,0 0,1 -1,0 0,1 -1,0 0,1 -1,0 0,1 -1,0 0,1 -1,0 0,1 -1,0 0,1 -1,0 0,1 -1,0 0,1 -1,0 0,1 -1,0 0,1 -1,0 0,1 -1,0 0,1 -1,0 0,1 -1,0 0,1 -1,0 0,1 -1,0 0,1 -1,0 0,1 -1,0 0,1 -1,0 0,1 -1,0 0,1 -1,0 0,1 -1,0 0,1 -1,0 0,1 -1,0 0,1 -1,0 0,1 -1,0 0,1 -1,0 0,1 -1,0 0,1 -1,0 0,1 -2,0 0,1 -1,0 0,1 -1,0 0,1 -1,0 0,1 -1,0 0,1 -1,0 0,1 -1,0 0,1 -1,0 0,1 -1,0 0,1 -1,0 0,1 -1,0 0,1 -1,0 0,1 -1,0 0,1 -1,0 0,1 -1,0 0,1 -1,0 0,1 -2,0 0,1 -1,0 0,1 -1,0 0,1 -1,0 0,1 -1,0 0,1 -1,0 0,1 -1,0 0,1 -1,0 0,1 -2,0 0,1 -1,0 0,1 -1,0 0,1 -1,0 0,1 -1,0 0,1 -1,0 0,1 -1,0 0,1 -1,0 0,1 -2,0 0,1 -1,0 0,1 -1,0 0,1 -1,0 0,1 -1,0 0,1 -1,0 0,1 -1,0 0,1 -1,0 0,1 -2,0 0,1 -1,0 0,1 -1,0 0,1 -1,0 0,1 -1,0 0,1 -2,0 0,1 -1,0 0,1 -1,0 0,1 -1,0 0,1 -1,0 0,1 -2,0 0,1 -1,0 0,1 -1,0 0,1 -1,0 0,1 -1,0 0,1 -1,0 0,1 -2,0 0,1 -1,0 0,1 -1,0 0,1 -1,0 0,1 -1,0 0,1 -2,0 0,1 -1,0 0,1 -1,0 0,1 -1,0 0,1 -1,0 0,1 -2,0 0,1 -1,0 0,1 -1,0 0,1 -1,0 0,1 -2,0 0,1 -1,0 0,1 -1,0 0,1 -1,0 0,1 -2,0 0,1 -1,0 0,1 -1,0 0,1 -2,0 0,1 -1,0 0,1 -1,0 0,1 -1,0 0,1 -2,0 0,1 -1,0 0,1 -1,0 0,1 -1,0 0,1 -2,0 0,1 -1,0 0,1 -1,0 0,1 -2,0 0,1 -1,0 0,1 -1,0 0,1 -1,0 0,1 -2,0 0,1 -1,0 0,1 -1,0 0,1 -2,0 0,1 -1,0 0,1 -1,0 0,1 -2,0 0,1 -1,0 0,1 -1,0 0,1 -2,0 0,1 -1,0 0,1 -1,0 0,1 -2,0 0,1 -1,0 0,1 -2,0 0,1 -1,0 0,1 -1,0 0,1 -2,0 0,1 -1,0 0,1 -1,0 0,1 -2,0 0,1 -1,0 0,1 -1,0 0,1 -2,0 0,1 -1,0 0,1 -2,0 0,1 -1,0 0,1 -1,0 0,1 -2,0 0,1 -1,0 0,1 -2,0 0,1 -1,0 0,1 -2,0 0,1 -1,0 0,1 -1,0 0,1 -2,0 0,1 -1,0 0,1 -2,0 0,1 -1,0 0,1 -2,0 0,1 -1,0 0,1 -2,0 0,1 -1,0 0,1 -1,0 0,1 -2,0 0,1 -1,0 0,1 -2,0 0,1 -1,0 0,1 -1,0 0,1 2,0 0,1 1,0 0,1 2,0 0,1 1,0 0,1 2,0 0,1 1,0 0,1 2,0 0,1 1,0 0,1 2,0 0,1 1,0 0,1 2,0 0,1 2,0 0,1 1,0 0,1 2,0 0,1 1,0 0,1 2,0 0,1 1,0 0,1 2,0 0,1 1,0 0,1 2,0 0,1 1,0 0,1 2,0 0,1 2,0 0,1 1,0 0,1 2,0 0,1 1,0 0,1 2,0 0,1 2,0 0,1 1,0 0,1 2,0 0,1 2,0 0,1 1,0 0,1 2,0 0,1 2,0 0,1 1,0 0,1 2,0 0,1 2,0 0,1 1,0 0,1 2,0 0,1 2,0 0,1 1,0 0,1 2,0 0,1 2,0 0,1 1,0 0,1 2,0 0,1 2,0 0,1 1,0 0,1 2,0 0,1 2,0 0,1 2,0 0,1 1,0 0,1 2,0 0,1 2,0 0,1 2,0 0,1 2,0 0,1 1,0 0,1 2,0 0,1 2,0 0,1 2,0 0,1 2,0 0,1 1,0 0,1 2,0 0,1 2,0 0,1 2,0 0,1 2,0 0,1 1,0 0,1 2,0 0,1 2,0 0,1 2,0 0,1 2,0 0,1 2,0 0,1 1,0 0,1 2,0 0,1 2,0 0,1 2,0 0,1 2,0 0,1 2,0 0,1 2,0 0,1 2,0 0,1 2,0 0,1 2,0 0,1 2,0 0,1 2,0 0,1 2,0 0,1 2,0 0,1 2,0 0,1 2,0 0,1 2,0 0,1 2,0 0,1 2,0 0,1 2,0 0,1 2,0 0,1 2,0 0,1 2,0 0,1 2,0 0,1 2,0 0,1 2,0 0,1 2,0 0,1 3,0 0,1 2,0 0,1 2,0 0,1 2,0 0,1 2,0 0,1 2,0 0,1 2,0 0,1 2,0 0,1 3,0 0,1 2,0 0,1 2,0 0,1 2,0 0,1 2,0 0,1 3,0 0,1 2,0 0,1 2,0 0,1 3,0 0,1 2,0 0,1 2,0 0,1 3,0 0,1 2,0 0,1 2,0 0,1 3,0 0,1 2,0 0,1 2,0 0,1 3,0 0,1 2,0 0,1 2,0 0,1 3,0 0,1 2,0 0,1 3,0 0,1 2,0 0,1 3,0 0,1 2,0 0,1 3,0 0,1 2,0 0,1 3,0 0,1 2,0 0,1 3,0 0,1 3,0 0,1 2,0 0,1 3,0 0,1 2,0 0,1 3,0 0,1 2,0 0,1 3,0 0,1 3,0 0,1 3,0 0,1 2,0 0,1 3,0 0,1 3,0 0,1 3,0 0,1 3,0 0,1 3,0 0,1 2,0 0,1 3,0 0,1 3,0 0,1 3,0 0,1 3,0 0,1 3,0 0,1 1,0 0,1 -2,0 0,1 -1,0 0,1 -1,0 0,1 -1,0 0,1 -1,0 0,1 -2,0 0,1 -1,0 0,1 -1,0 0,1 -1,0 0,1 -2,0 0,1 -1,0 0,1 -1,0 0,1 -1,0 0,1 -2,0 0,1 -1,0 0,1 -1,0 0,1 -1,0 0,1 -2,0 0,1 -1,0 0,1 -1,0 0,1 -1,0 0,1 -1,0 0,1 -2,0 0,1 -1,0 0,1 -1,0 0,1 -1,0 0,1 -2,0 0,1 -1,0 0,1 -1,0 0,1 -1,0 0,1 -2,0 0,1 -1,0 0,1 -1,0 0,1 -1,0 0,1 -2,0 0,1 -1,0 0,1 -1,0 0,1 -1,0 0,1 -2,0 0,1 -1,0 0,1 -1,0 0,1 -2,0 0,1 -1,0 0,1 -1,0 0,1 -2,0 0,1 -1,0 0,1 -1,0 0,1 -2,0 0,1 -1,0 0,1 -1,0 0,1 -2,0 0,1 -1,0 0,1 -1,0 0,1 -2,0 0,1 -1,0 0,1 -1,0 0,1 -2,0 0,1 -1,0 0,1 -1,0 0,1 -2,0 0,1 -1,0 0,1 -1,0 0,1 -2,0 0,1 -1,0 0,1 -1,0 0,1 -2,0 0,1 -1,0 0,1 -1,0 0,1 -2,0 0,1 -1,0 0,1 -1,0 0,1 -2,0 0,1 -1,0 0,1 -1,0 0,1 -2,0 0,1 -1,0 0,1 -2,0 0,1 -1,0 0,1 -1,0 0,1 -2,0 0,1 -1,0 0,1 -2,0 0,1 -1,0 0,1 -1,0 0,1 -2,0 0,1 -1,0 0,1 -2,0 0,1 -1,0 0,1 -2,0 0,1 -1,0 0,1 -2,0 0,1 -1,0 0,1 -1,0 0,1 -2,0 0,1 -1,0 0,1 -2,0 0,1 -1,0 0,1 -2,0 0,1 -1,0 0,1 -2,0 0,1 -1,0 0,1 -2,0 0,1 -1,0 0,1 -1,0 0,1 -2,0 0,1 -1,0 0,1 -2,0 0,1 -1,0 0,1 -2,0 0,1 -1,0 0,1 -2,0 0,1 -1,0 0,1 -2,0 0,1 -1,0 0,1 -2,0 0,1 -1,0 0,1 -2,0 0,1 -1,0 0,1 -2,0 0,1 -1,0 0,1 -2,0 0,1 -2,0 0,1 -1,0 0,1 -2,0 0,1 -1,0 0,1 -2,0 0,1 -1,0 0,1 -2,0 0,1 -2,0 0,1 -1,0 0,1 -2,0 0,1 -1,0 0,1 -2,0 0,1 -1,0 0,1 -2,0 0,1 -2,0 0,1 -1,0 0,1 -2,0 0,1 -1,0 0,1 -2,0 0,1 -1,0 0,1 -2,0 0,1 -2,0 0,1 -1,0 0,1 -2,0 0,1 -1,0 0,1 -2,0 0,1 -2,0 0,1 -1,0 0,1 -2,0 0,1 -2,0 0,1 -1,0 0,1 -2,0 0,1 -2,0 0,1 -1,0 0,1 -2,0 0,1 -2,0 0,1 -1,0 0,1 -1,0 0,1 2,0 0,-1 1,0 0,-1 2,0 0,-1 2,0 0,-1 1,0 0,-1 2,0 0,-1 2,0 0,-1 1,0 0,-1 2,0 0,-1 2,0 0,-1 1,0 0,-1 2,0 0,-1 2,0 0,-1 1,0 0,-1 2,0 0,-1 1,0 0,-1 2,0 0,-1 2,0 0,-1 1,0 0,-1 2,0 0,-1 1,0 0,-1 2,0 0,-1 1,0 0,-1 2,0 0,-1 2,0 0,-1 1,0 0,-1 2,0 0,-1 1,0 0,-1 2,0 0,-1 2,0 0,-1 1,0 0,-1 2,0 0,-1 1,0 0,-1 2,0 0,-1 2,0 0,-1 1,0 0,-1 2,0 0,-1 1,0 0,-1 2,0 0,-1 1,0 0,-1 2,0 0,-1 1,0 0,-1 2,0 0,-1 1,0 0,-1 2,0 0,-1 2,0 0,-1 1,0 0,-1 1,0 0,-1 2,0 0,-1 1,0 0,-1 2,0 0,-1 1,0 0,-1 2,0 0,-1 1,0 0,-1 2,0 0,-1 1,0 0,-1 2,0 0,-1 1,0 0,-1 2,0 0,-1 1,0 0,-1 2,0 0,-1 1,0 0,-1 1,0 0,-1 2,0 0,-1 1,0 0,-1 2,0 0,-1 1,0 0,-1 2,0 0,-1 1,0 0,-1 2,0 0,-1 1,0 0,-1 2,0 0,-1 1,0 0,-1 1,0 0,-1 2,0 0,-1 1,0 0,-1 1,0 0,-1 2,0 0,-1 1,0 0,-1 2,0 0,-1 1,0 0,-1 2,0 0,-1 1,0 0,-1 1,0 0,-1 2,0 0,-1 1,0 0,-1 1,0 0,-1 2,0 0,-1 1,0 0,-1 1,0 0,-1 2,0 0,-1 1,0 0,-1 2,0 0,-1 1,0 0,-1 1,0 0,-1 2,0 0,-1 1,0 0,-1 2,0 0,-1 1,0 0,-1 1,0 0,-1 2,0 0,-1 1,0 0,-1 1,0 0,-1 2,0 0,-1 1,0 0,-1 1,0 0,-1 1,0 0,-1 2,0 0,-1 1,0 0,-1 1,0 0,-1 2,0 0,-1 1,0 0,-1 1,0 0,-1 1,0 0,-1 2,0 0,-1 1,0 0,-1 1,0 0,-1 2,0 0,-1 1,0 0,-1 1,0 0,-1 2,0 0,-1 1,0 0,-1 1,0 0,-1 1,0 0,-1 2,0 0,-1 1,0 0,-1 1,0 0,-1 2,0 0,-1 1,0 0,-1 1,0 0,-1 1,0 0,-1 2,0 0,-1 1,0 0,-1 1,0 0,-1 1,0 0,-1 2,0 0,-1 1,0 0,-1 1,0 0,-1 1,0 0,-1 2,0 0,-1 1,0 0,-1 1,0 0,-1 1,0 0,-1 1,0 0,-1 2,0 0,-1 1,0 0,-1 1,0 0,-1 1,0 0,-1 1,0 0,-1 2,0 0,-1 1,0 0,-1 1,0 0,-1 1,0 0,-1 2,0 0,-1 1,0 0,-1 1,0 0,-1 1,0 0,-1 1,0 0,-1 2,0 0,-1 1,0 0,-1 1,0 0,-1 1,0 0,-1 1,0 0,-1 2,0 0,-1 1,0 0,-1 1,0 0,-1 1,0 0,-1 1,0 0,-1 2,0 0,-1 1,0 0,-1 1,0 0,-1 1,0 0,-1 1,0 0,-1 1,0 0,-1 1,0 0,-1 2,0 0,-1 1,0 0,-1 1,0 0,-1 1,0 0,-1 1,0 0,-1 1,0 0,-1 1,0 0,-1 2,0 0,-1 1,0 0,-1 1,0 0,-1 1,0 0,-1 1,0 0,-1 1,0 0,-1 1,0 0,-1 1,0 0,-1 2,0 0,-1 1,0 0,-1 1,0 0,-1 1,0 0,-1 1,0 0,-1 1,0 0,-1 1,0 0,-1 2,0 0,-1 1,0 0,-1 1,0 0,-1 1,0 0,-1 1,0 0,-1 1,0 0,-1 1,0 0,-1 1,0 0,-1 1,0 0,-1 1,0 0,-1 1,0 0,-1 2,0 0,-1 1,0 0,-1 1,0 0,-1 1,0 0,-1 1,0 0,-1 1,0 0,-1 1,0 0,-1 1,0 0,-1 1,0 0,-1 1,0 0,-1 1,0 0,-1 1,0 0,-1 1,0 0,-1 1,0 0,-1 2,0 0,-1 1,0 0,-1 1,0 0,-1 1,0 0,-1 1,0 0,-1 1,0 0,-1 1,0 0,-1 1,0 0,-1 1,0 0,-1 1,0 0,-1 1,0 0,-1 1,0 0,-1 1,0 0,-1 1,0 0,-1 1,0 0,-1 1,0 0,-1 1,0 0,-1 1,0 0,-1 1,0 0,-1 1,0 0,-1 2,0 0,-1 1,0 0,-1 1,0 0,-1 1,0 0,-1 1,0 0,-1 1,0 0,-1 1,0 0,-1 1,0 0,-1 1,0 0,-1 1,0 0,-1 1,0 0,-1 1,0 0,-1 1,0 0,-1 1,0 0,-1 1,0 0,-1 1,0 0,-1 1,0 0,-1 1,0 0,-1 1,0 0,-1 1,0 0,-1 1,0 0,-1 1,0 0,-1 1,0 0,-1 1,0 0,-1 1,0 0,-1 1,0 0,-1 1,0 0,-1 1,0 0,-1 1,0 0,-1 1,0 0,-1 1,0 0,-1 1,0 0,-1 1,0 0,-1 1,0 0,-2 1,0 0,-1 1,0 0,-1 1,0 0,-1 1,0 0,-1 1,0 0,-1 1,0 0,-1 1,0 0,-1 1,0 0,-1 1,0 0,-1 1,0 0,-1 1,0 0,-1 1,0 0,-1 1,0 0,-1 1,0 0,-1 1,0 0,-1 1,0 0,-1 1,0 0,-2 1,0 0,-1 1,0 0,-1 1,0 0,-1 1,0 0,-1 1,0 0,-1 1,0 0,-1 1,0 0,-1 1,0 0,-1 1,0 0,-1 1,0 0,-1 1,0 0,-1 1,0 0,-1 1,0 0,-1 1,0 0,-1 1,0 0,-1 1,0 0,-2 1,0 0,-1 1,0 0,-1 1,0 0,-1 1,0 0,-1 1,0 0,-1 1,0 0,-1 1,0 0,-1 1,0 0,-2 1,0 0,-1 1,0 0,-1 1,0 0,-1 1,0 0,-1 1,0 0,-1 1,0 0,-1 1,0 0,-1 1,0 0,-2 1,0 0,-1 1,0 0,-1 1,0 0,-1 1,0 0,-1 1,0 0,-1 1,0 0,-1 1,0 0,-1 1,0 0,-2 1,0 0,-1 1,0 0,-1 1,0 0,-1 1,0 0,-1 1,0 0,-1 1,0 0,-1 1,0 0,-1 1,0 0,-2 1,0 0,-1 1,0 0,-1 1,0 0,-1 1,0 0,-1 1,0 0,-1 1,0 0,-2 1,0 0,-1 1,0 0,-1 1,0 0,-1 1,0 0,-1 1,0 0,-2 1,0 0,-1 1,0 0,-1 1,0 0,-1 1,0 0,-1 1,0 0,-2 1,0 0,-1 1,0 0,-1 1,0 0,-1 1,0 0,-1 1,0 0,-2 1,0 0,-1 1,0 0,-1 1,0 0,-1 1,0 0,-1 1,0 0,-2 1,0 0,-1 1,0 0,-1 1,0 0,-1 1,0 0,-1 1,0 0,-2 1,0 0,-1 1,0 0,-1 1,0 0,-1 1,0 0,-1 1,0 0,-2 1,0 0,-1 1,0 0,-1 1,0 0,-2 1,0 0,-1 1,0 0,-1 1,0 0,-1 1,0 0,-2 1,0 0,-1 1,0 0,-1 1,0 0,-2 1,0 0,-1 1,0 0,-1 1,0 0,-1 1,0 0,-2 1,0 0,-1 1,0 0,-1 1,0 0,-1 1,0 0,-2 1,0 0,-1 1,0 0,-1 1,0 0,-2 1,0 0,-1 1,0 0,-1 1,0 0,-1 1,0 0,-2 1,0 0,-1 1,0 0,-1 1,0 0,-2 1,0 0,-1 1,0 0,-1 1,0 0,-1 1,0 0,-2 1,0 0,-1 1,0 0,-1 1,0 0,-2 1,0 0,-1 1,0 0,-2 1,0 0,-1 1,0 0,-1 1,0 0,-2 1,0 0,-1 1,0 0,-1 1,0 0,-2 1,0 0,-1 1,0 0,-1 1,0 0,-2 1,0 0,-1 1,0 0,-2 1,0 0,-1 1,0 0,-1 1,0 0,-2 1,0 0,-1 1,0 0,-1 1,0 0,-2 1,0 0,-1 1,0 0,-1 1,0 0,-2 1,0 0,-1 1,0 0,-2 1,0 0,-1 1,0 0,-1 1,0 0,-2 1,0 0,-1 1,0 0,-2 1,0 0,-1 1,0 0,-1 1,0 0,-2 1,0 0,-1 1,0 0,-2 1,0 0,-1 1,0 0,-2 1,0 0,-1 1,0 0,-2 1,0 0,-1 1,0 0,-2 1,0 0,-1 1,0 0,-2 1,0 0,-1 1,0 0,-1 1,0 0,-2 1,0 0,-1 1,0 0,-2 1,0 0,-1 1,0 0,-2 1,0 0,-1 1,0 0,-2 1,0 0,-1 1,0 0,-2 1,0 0,-1 1,0 0,-2 1,0 0,-1 1,0 0,-1 1,0 0,-2 1,0 0,-2 1,0 0,-1 1,0 0,-2 1,0 0,-1 1,0 0,-2 1,0 0,-1 1,0 0,-2 1,0 0,-1 1,0 0,-2 1,0 0,-2 1,0 0,-1 1,0 0,-2 1,0 0,-1 1,0 0,-2 1,0 0,-1 1,0 0,-2 1,0 0,-2 1,0 0,-1 1,0 0,-2 1,0 0,-1 1,0 0,-2 1,0 0,-1 1,0 0,-2 1,0 0,-2 1,0 0,-1 1,0 0,-2 1,0 0,-1 1,0 0,-2 1,0 0,-1 1,0 0,-2 1,0 0,-2 1,0 0,-2 1,0 0,-1 1,0 0,-2 1,0 0,-2 1,0 0,-1 1,0 0,-2 1,0 0,-2 1,0 0,-1 1,0 0,-2 1,0 0,-2 1,0 0,-1 1,0 0,-2 1,0 0,-2 1,0 0,-1 1,0 0,-2 1,0 0,-2 1,0 0,-1 1,0 0,-2 1,0 0,-2 1,0 0,-1 1,0 0,-2 1,0 0,-2 1,0 0,-1 1,0 0,-2 1,0 0,-2 1,0 0,-2 1,0 0,-2 1,0 0,-1 1,0 0,-2 1,0 0,-2 1,0 0,-2 1,0 0,-2 1,0 0,-1 1,0 0,-2 1,0 0,-2 1,0 0,-2 1,0 0,-2 1,0 0,-1 1,0 0,-2 1,0 0,-2 1,0 0,-2 1,0 0,-2 1,0 0,-1 1,0 0,-2 1,0 0,-2 1,0 0,-2 1,0 0,-2 1,0 0,-2 1,0 0,-1 1,0 0,-2 1,0 0,-2 1,0 0,-2 1,0 0,-2 1,0 0,-2 1,0 0,-2 1,0 0,-2 1,0 0,-2 1,0 0,-2 1,0 0,-2 1,0 0,-2 1,0 0,-2 1,0 0,-2 1,0 0,-2 1,0 0,-2 1,0 0,-2 1,0 0,-1 1,0 0,-2 1,0 0,-2 1,0 0,-2 1,0 0,-2 1,0 0,-2 1,0 0,-2 1,0 0,-2 1,0 0,-2 1,0 0,-2 1,0 0,-2 1,0 0,-3 1,0 0,-2 1,0 0,-2 1,0 0,-2 1,0 0,-2 1,0 0,-2 1,0 0,-2 1,0 0,-2 1,0 0,-2 1,0 0,-3 1,0 0,-2 1,0 0,-2 1,0 0,-2 1,0 0,-2 1,0 0,-2 1,0 0,-2 1,0 0,-2 1,0 0,-2 1,0 0,-3 1,0 0,-2 1,0 0,-2 1,0 0,-2 1,0 0,-3 1,0 0,-2 1,0 0,-2 1,0 0,-2 1,0 0,-3 1,0 0,-2 1,0 0,-2 1,0 0,-3 1,0 0,-2 1,0 0,-2 1,0 0,-3 1,0 0,-2 1,0 0,-2 1,0 0,-3 1,0 0,-2 1,0 0,-2 1,0 0,-2 1,0 0,-3 1,0 0,-2 1,0 0,-2 1,0 0,-3 1,0 0,-3 1,0 0,-2 1,0 0,-3 1,0 0,-2 1,0 0,-3 1,0 0,-2 1,0 0,-3 1,0 0,-2 1,0 0,-3 1,0 0,-2 1,0 0,-3 1,0 0,-2 1,0 0,-3 1,0 0,-2 1,0 0,-3 1,0 0,-2 1,0 0,-3 1,0 0,-2 1,0 0,-3 1,0 0,-3 1,0 0,-3 1,0 0,-3 1,0 0,-2 1,0 0,-3 1,0 0,-3 1,0 0,-3 1,0 0,-2 1,0 0,-3 1,0 0,-3 1,0 0,-3 1,0 0,-3 1,0 0,-2 1,0 0,-3 1,0 0,-3 1,0 0,-3 1,0 0,-2 1,0 0,-4 1,0 0,-3 1,0 0,-3 1,0 0,-3 1,0 0,-3 1,0 0,-3 1,0 0,-3 1,0 0,-3 1,0 0,-3 1,0 0,-3 1,0 0,-3 1,0 0,-4 1,0 0,-3 1,0 0,-3 1,0 0,-3 1,0 0,-3 1,0 0,-3 1,0 0,-4 1,0 0,-3 1,0 0,-4 1,0 0,-3 1,0 0,-4 1,0 0,-3 1,0 0,-3 1,0 0,-4 1,0 0,-3 1,0 0,-4 1,0 0,-3 1,0 0,-4 1,0 0,-3 1,0 0,-4 1,0 0,-4 1,0 0,-4 1,0 0,-3 1,0 0,-4 1,0 0,-4 1,0 0,-4 1,0 0,-4 1,0 0,-4 1,0 0,-4 1,0 0,-4 1,0 0,-4 1,0 0,-4 1,0 0,-4 1,0 0,-4 1,0 0,-5 1,0 0,-4 1,0 0,-5 1,0 0,-4 1,0 0,-5 1,0 0,-5 1,0 0,-4 1,0 0,-5 1,0 0,-4 1,0 0,-5 1,0 0,-5 1,0 0,-5 1,0 0,-5 1,0 0,-6 1,0 0,-5 1,0 0,-5 1,0 0,-6 1,0 0,-5 1,0 0,-6 1,0 0,-5 1,0 0,-6 1,0 0,-6 1,0 0,-7 1,0 0,-6 1,0 0,-7 1,0 0,-7 1,0 0,-6 1,0 0,-7 1,0 0,-7 1,0 0,-7 1,0 0,-9 1,0 0,-9 1,0 0,-8 1,0 0,-9 1,0 0,-8 1,0 0,-10 1,0 0,-12 1,0 0,-12 1,0 0,-12 1,0 0,-12 1,0 0,-17 1,0 0,-20 1,0 0,-20 1,0 0,-119 -1,0 0,-19 -1,0 0,-19 -1,0 0,-18 -1,0 0,-1 -2,0 0,-1 -1,0 0,-1 -2,0 0,-1 -2,0 0,-1 -1,0 0,-1 -2,0 0,-1 -1,0 0,-1 -2,0 0,-1 -2,0 0,-1 -1,0 0,-1 -2,0 0,-1 -1,0 0,-1 -2,0 0,-1 -2,0 0,-1 -1,0 0,-1 -2,0 0,-1 -1,0 0,-1 -2,0 0,-1 -2,0 0,-1 -1,0 0,-1 -2,0 0,-1 -1,0 0,-1 -2,0 0,-1 -2,0 0,-1 -1,0 0,-1 -2,0 0,-1 -2,0 0,-1 -1,0 0,-1 -2,0 0,-1 -2,0 0,-1 -1,0 0,-1 -2,0 0,-1 -2,0 0,-1 -1,0 0,-1 -2,0 0,-1 -2,0 0,-1 -2,0 0,-1 -1,0 0,-1 -2,0 0,-1 -2,0 0,-1 -1,0 0,-1 -2,0 0,-1 -2,0 0,-1 -2,0 0,-1 -1,0 0,-1 -2,0 0,-1 -2,0 0,-1 -1,0 0,-1 -2,0 0,-1 -2,0 0,-1 -2,0 0,-1 -1,0 0,-1 -2,0 0,-1 -2,0 0,-1 -2,0 0,-1 -2,0 0,-1 -2,0 0,-1 -1,0 0,-1 -2,0 0,-1 -2,0 0,-1 -2,0 0,-1 -2,0 0,-1 -2,0 0,-1 -1,0 0,-1 -2,0 0,-1 -2,0 0,-1 -2,0 0,-1 -2,0 0,-1 -2,0 0,-1 -1,0 0,-1 -2,0 0,-1 -2,0 0,-1 -2,0 0,-1 -2,0 0,-1 -2,0 0,-1 -2,0 0,-1 -2,0 0,-1 -2,0 0,-1 -2,0 0,-1 -2,0 0,-1 -2,0 0,-1 -2,0 0,-1 -1,0 0,-1 -2,0 0,-1 -2,0 0,-1 -2,0 0,-1 -2,0 0,-1 -2,0 0,-1 -2,0 0,-1 -2,0 0,-1 -2,0 0,-1 -2,0 0,-1 -2,0 0,-1 -2,0 0,-1 -2,0 0,-1 -2,0 0,-1 -2,0 0,-1 -2,0 0,-1 -2,0 0,-1 -3,0 0,-1 -2,0 0,-1 -2,0 0,-1 -2,0 0,-1 -2,0 0,-1 -2,0 0,-1 -2,0 0,-1 -2,0 0,-1 -2,0 0,-1 -3,0 0,-1 -2,0 0,-1 -2,0 0,-1 -2,0 0,-1 -2,0 0,-1 -2,0 0,-1 -2,0 0,-1 -2,0 0,-1 -3,0 0,-1 -2,0 0,-1 -2,0 0,-1 -3,0 0,-1 -2,0 0,-1 -2,0 0,-1 -2,0 0,-1 -3,0 0,-1 -2,0 0,-1 -2,0 0,-1 -2,0 0,-1 -3,0 0,-1 -2,0 0,-1 -2,0 0,-1 -3,0 0,-1 -2,0 0,-1 -2,0 0,-1 -2,0 0,-1 -3,0 0,-1 -2,0 0,-1 -3,0 0,-1 -2,0 0,-1 -3,0 0,-1 -2,0 0,-1 -3,0 0,-1 -2,0 0,-1 -2,0 0,-1 -3,0 0,-1 -2,0 0,-1 -3,0 0,-1 -2,0 0,-1 -3,0 0,-1 -2,0 0,-1 -3,0 0,-1 -2,0 0,-1 -3,0 0,-1 -2,0 0,-1 -3,0 0,-1 -2,0 0,-1 -3,0 0,-1 -3,0 0,-1 -3,0 0,-1 -2,0 0,-1 -3,0 0,-1 -3,0 0,-1 -2,0 0,-1 -3,0 0,-1 -3,0 0,-1 -2,0 0,-1 -3,0 0,-1 -3,0 0,-1 -3,0 0,-1 -2,0 0,-1 -3,0 0,-1 -2,0 z m -472,1723 0,1 -2,0 0,1 -2,0 0,1 -1,0 0,1 -1,0 0,1 2,0 0,-1 1,0 0,-1 2,0 0,-1 2,0 0,-1 1,0 0,-1 -2,0 z m -12,7 0,1 -1,0 0,1 2,0 0,-1 1,0 0,-1" />
            </g>
          </g>
        </g>
        <path
           inkscape:connector-curvature="0"
           id="path3691"
           style="fill:#8a9cc8;fill-opacity:1;fill-rule:nonzero;stroke:none"
           d="M 0.449219,417.039 C 0.179688,405.25 0,393.551 0,381.762 0,352.871 0.988281,324.16 2.51953,295.629 0.988281,324.16 0,352.781 0,381.578 0,393.461 0.179688,405.25 0.449219,417.039 M 9.89844,562.211 c -0.71875,-6.84 -1.4375,-13.59 -2.16016,-20.43 0.72266,6.84 1.44141,13.59 2.16016,20.43 m -2.16016,-20.43 c -1.52734,-16.652 -2.96875,-33.39 -4.13672,-50.222 1.16797,16.832 2.60938,33.57 4.13672,50.222 M 24.2109,665.262 c 0.1797,0.988 0.3594,1.976 0.5391,2.879 l 0,0.089 c -0.1797,-0.992 -0.3594,-1.98 -0.5391,-2.968 M 916.738,1869.91 C 454.68,1636.81 116.191,1194.91 24.75,668.141 c 89.73,-81 190.262,-150.121 299.25,-204.75 20.25,339.031 165.691,643.319 391.32,869.129 145.891,145.71 324.63,257.67 524.25,324.36 -98.55,82.89 -206.82,154.53 -322.832,213.03 M 20.5195,642.039 c -1.4414,-9 -2.789,-17.91 -4.0507,-26.91 1.2617,9 2.6093,17.91 4.0507,26.91 m 3.6914,23.223 c -1.2617,-7.653 -2.4296,-15.481 -3.6914,-23.223 1.2618,7.742 2.4297,15.57 3.6914,23.223 m -7.7421,-50.133 c -1.0782,-7.738 -2.0704,-15.57 -3.0586,-23.399 0.9882,7.829 1.9804,15.661 3.0586,23.399 M 13.4102,591.73 c -1.2618,-9.808 -2.4297,-19.621 -3.51176,-29.519 1.08206,9.898 2.24996,19.711 3.51176,29.519" />
        <g
           id="g3693">
          <g
             clip-path="url(#clipPath3697)"
             id="g3695">
            <path
               inkscape:connector-curvature="0"
               id="path3707"
               style="fill:url(#linearGradient3701);fill-opacity:1;fill-rule:nonzero;stroke:none"
               d="m 324,463.391 c -6.426,3.218 -12.816,6.488 -19.184,9.82 l 0,0 c -0.546,0.277 -1.093,0.559 -1.64,0.848 -2.481,1.3 -4.965,2.621 -7.442,3.929 -1.894,1.012 -3.781,2.024 -5.671,3.043 -0.317,0.168 -0.622,0.328 -0.934,0.5 -95.586,51.489 -184.258,114.289 -264.3126,186.547 -0.0234,0.024 -0.043,0.043 -0.0664,0.063 91.441,526.769 429.93,968.669 891.988,1201.769 116.012,-58.5 224.282,-130.14 322.832,-213.03 -115.28,-38.51 -223.61,-92.13 -322.664,-158.63 l 0,0 C 844.445,1449.61 776.957,1394.08 715.32,1332.52 489.691,1106.71 344.25,802.422 324,463.391" />
          </g>
        </g>
        <path
           inkscape:connector-curvature="0"
           id="path3709"
           style="fill:#122341;fill-opacity:1;fill-rule:nonzero;stroke:none"
           d="m 1769.34,134.531 c 7.38,0 14.65,0.231 14.65,8.52 0,6.828 -5.68,8.41 -11.59,8.41 l -11.02,0 0,-16.93 7.96,0 z m -7.96,-26.832 -6.03,0 0,48.879 18.75,0 c 11.04,0 15.92,-4.769 15.92,-13.527 0,-8.641 -5.68,-12.512 -12.28,-13.641 l 14.55,-21.711 -7.05,0 -13.75,21.711 -10.11,0 0,-21.711 z M 1735,132.148 c 0,-20.238 15.23,-36.2691 35.69,-36.2691 20.47,0 35.7,16.0311 35.7,36.2691 0,20.231 -15.23,36.262 -35.7,36.262 -20.46,0 -35.69,-16.031 -35.69,-36.262 z m 77.99,0 c 0,-23.757 -18.42,-42.2886 -42.3,-42.2886 -23.86,0 -42.28,18.5316 -42.28,42.2886 0,23.75 18.42,42.282 42.28,42.282 23.88,0 42.3,-18.532 42.3,-42.282" />
      </g>
    </g>
    <text
       xml:space="preserve"
       style="font-style:normal;font-weight:normal;font-size:40px;line-height:101.99999809%;font-family:sans-serif;letter-spacing:0px;word-spacing:0px;fill:#000000;fill-opacity:1;stroke:none;stroke-width:1px;stroke-linecap:butt;stroke-linejoin:miter;stroke-opacity:1"
       x="369.79037"
       y="872.04767"
       id="text3555"
       sodipodi:linespacing="102%"><tspan
         sodipodi:role="line"
         id="tspan3557"
         x="369.79037"
         y="872.04767"
         style="font-style:normal;font-variant:normal;font-weight:bold;font-stretch:normal;font-size:45px;font-family:'Latin Modern Sans';-inkscape-font-specification:'Latin Modern Sans';text-align:center;text-anchor:middle">Colorado School of Mines</tspan><tspan
         sodipodi:role="line"
         x="369.79037"
         y="945.93933"
         id="tspan3559"
         style="font-style:normal;font-variant:normal;font-weight:normal;font-stretch:normal;font-size:80px;line-height:101.99999809%;font-family:'Latin Modern Sans';-inkscape-font-specification:'Latin Modern Sans';text-align:center;text-anchor:middle">Linux Users Group</tspan></text>
  </g>
</svg>
